[gd_resource type="Resource" load_steps=3 format=2]

[ext_resource path="res://Resources/CommodityQuantity.cs" type="Script" id=1]
[ext_resource path="res://Resources/Simulation/Commodities/commodity_weapons.tres" type="Resource" id=2]

[resource]
script = ExtResource( 1 )
Commodity = ExtResource( 2 )
Quantity = 5
