[gd_resource type="Environment" load_steps=2 format=2]

[sub_resource type="ProceduralSky" id=1]

[resource]
background_mode = 1
background_sky = SubResource( 1 )
background_color = Color( 0, 0, 0, 0.941176 )
background_energy = 0.0
ambient_light_color = Color( 0.164706, 0.164706, 0.164706, 1 )
ambient_light_energy = 0.1
ambient_light_sky_contribution = 0.0
fog_color = Color( 0, 0, 0.168627, 0.941176 )
fog_sun_color = Color( 1, 0.901961, 0.701961, 1 )
fog_depth_begin = 0.0
fog_depth_end = 4000.0
fog_depth_curve = 0.0563291
fog_transmit_enabled = true
