[gd_resource type="Resource" load_steps=3 format=2]

[ext_resource path="res://Resources/Simulation/CommodityType.cs" type="Script" id=1]
[ext_resource path="res://Textures/commodity_glitterweed.png" type="Texture" id=2]

[resource]
script = ExtResource( 1 )
Name = "Glitterweed"
BaseValue = 1000.0
Icon = ExtResource( 2 )
Mass = 0.0
Description = "A highly addictive hallucinogen from the Unclaimed Regions, it's highly illegal and the cornerstone of many smuggling operations."
