[gd_scene load_steps=6 format=2]

[ext_resource path="res://Scenes/Equipment/Turrets/SonicTurret.cs" type="Script" id=1]
[ext_resource path="res://Assets/Models/singleturret.obj" type="ArrayMesh" id=2]
[ext_resource path="res://Scenes/Effects/eff_railgun_charge.tscn" type="PackedScene" id=3]

[sub_resource type="CubeMesh" id=1]
size = Vector3( 0.7, 6, 1 )

[sub_resource type="CylinderMesh" id=2]
top_radius = 1.1
bottom_radius = 1.1
height = 1.0

[node name="TurretSonicBeam" type="Spatial"]
script = ExtResource( 1 )
MinElevation = -60.0
MaxElevation = 22.0
ShotVariance = 0.001
ChargeEffect = ExtResource( 3 )
ChargeTime = 1.0

[node name="BarrelBase" type="Spatial" parent="."]
transform = Transform( 1, 0, 0, 0, 1, 0, 0, 0, 1, 0, 2.89274, -0.297783 )

[node name="MeshInstance1" type="MeshInstance" parent="BarrelBase"]
transform = Transform( 1, 0, 0, 0, -4.37114e-08, -1, 0, 1, -4.37114e-08, 0, 0, 3 )
mesh = SubResource( 1 )

[node name="Muzzle0" type="Spatial" parent="BarrelBase"]
transform = Transform( 1, 0, 0, 0, 1, 1.1921e-07, 0, -1.1921e-07, 1, 0, 0, 6 )

[node name="MeshInstance" type="MeshInstance" parent="BarrelBase"]
transform = Transform( -4.37114e-08, 1, 0, -1, -4.37114e-08, 0, 0, 0, 1, 0, 0, 0 )
mesh = SubResource( 2 )

[node name="MeshInstance" type="MeshInstance" parent="."]
transform = Transform( -4.37114e-08, 1, 4.37114e-08, 0, -4.37114e-08, 1, 1, 4.37114e-08, 1.91069e-15, 0.994543, -24.0249, -8.54565 )
mesh = ExtResource( 2 )

[node name="OmniLight" type="OmniLight" parent="."]
transform = Transform( 1, 0, 0, 0, 1, 0, 0, 0, 1, 0, 4.8596, 0 )
editor_only = true
