# WaveFront *.obj file (generated by Autodesk ATF)

mtllib aa2cdc9b-02a7-4017-9489-93fd8cc055bf.mtl

g forthright_door1

v 0.000000 -20.300000 -4.500000
v 0.000000 -8.300000 -4.500000
v 0.000000 -8.300000 -5.000000
v 0.000000 -20.300000 -5.000000
v 0.628449 -8.300000 -4.960348
v 1.246929 -8.300000 -4.842021
v 1.845633 -8.300000 -4.646896
v 2.415063 -8.300000 -4.378067
v 2.415063 -20.300000 -4.378067
v 1.845633 -20.300000 -4.646896
v 1.246929 -20.300000 -4.842021
v 0.628449 -20.300000 -4.960348
v 0.635182 -8.300000 -4.454946
v 1.257646 -8.300000 -4.320686
v 1.854926 -8.300000 -4.099908
v 2.415063 -8.300000 -3.797034
v 0.635182 -20.300000 -4.454946
v 1.257646 -20.300000 -4.320686
v 1.854926 -20.300000 -4.099908
v 2.415063 -20.300000 -3.797034
vt -0.015825 0.600000 0.000000
vt -0.065825 0.600000 0.000000
vt -0.015825 -0.600000 0.000000
vt -0.065825 -0.600000 0.000000
vt -0.600000 -0.785398 0.000000
vt 0.600000 -0.785398 0.000000
vt -0.600000 -0.722387 0.000000
vt 0.600000 -0.722387 0.000000
vt -0.600000 -0.659375 0.000000
vt 0.600000 -0.659375 0.000000
vt -0.600000 -0.596364 0.000000
vt 0.600000 -0.596364 0.000000
vt 0.600000 -0.533352 0.000000
vt -0.600000 -0.533352 0.000000
vt -0.000000 -0.500000 0.000000
vt -0.000000 -0.450000 0.000000
vt -0.062845 -0.496035 0.000000
vt -0.063518 -0.445495 0.000000
vt -0.124693 -0.484202 0.000000
vt -0.125765 -0.432069 0.000000
vt -0.184563 -0.464690 0.000000
vt -0.185493 -0.409991 0.000000
vt -0.241506 -0.437807 0.000000
vt -0.241506 -0.379703 0.000000
vt -0.600000 -0.706858 0.000000
vt 0.600000 -0.706858 0.000000
vt -0.600000 -0.643127 0.000000
vt 0.600000 -0.643127 0.000000
vt -0.600000 -0.579396 0.000000
vt 0.600000 -0.579396 0.000000
vt -0.600000 -0.515665 0.000000
vt 0.600000 -0.515665 0.000000
vt -0.600000 -0.451934 0.000000
vt 0.600000 -0.451934 0.000000
vt -0.179703 -0.600000 0.000000
vt -0.179703 0.600000 0.000000
vt -0.237807 -0.600000 0.000000
vt -0.237807 0.600000 0.000000
vt 0.000000 -0.500000 0.000000
vt 0.062845 -0.496035 0.000000
vt 0.000000 -0.450000 0.000000
vt 0.063518 -0.445495 0.000000
vt 0.124693 -0.484202 0.000000
vt 0.125765 -0.432069 0.000000
vt 0.184563 -0.464690 0.000000
vt 0.185493 -0.409991 0.000000
vt 0.241506 -0.437807 0.000000
vt 0.241506 -0.379703 0.000000
vn -0.100000 0.000000 0.000000
vn -0.100000 0.000000 0.000000
vn -0.100000 0.000000 0.000000
vn -0.100000 0.000000 0.000000
vn 0.000000 0.000000 -0.100000
vn 0.000000 0.000000 -0.100000
vn 0.012569 0.000000 -0.099207
vn 0.012569 0.000000 -0.099207
vn 0.024939 0.000000 -0.096840
vn 0.024939 0.000000 -0.096840
vn 0.036913 0.000000 -0.092938
vn 0.036913 0.000000 -0.092938
vn 0.048301 0.000000 -0.087561
vn 0.048301 0.000000 -0.087561
vn 0.000000 0.100000 0.000000
vn 0.000000 0.100000 0.000000
vn 0.000000 0.100000 0.000000
vn 0.000000 0.100000 0.000000
vn 0.000000 0.100000 0.000000
vn 0.000000 0.100000 0.000000
vn 0.000000 0.100000 0.000000
vn 0.000000 0.100000 0.000000
vn 0.000000 0.100000 0.000000
vn 0.000000 0.100000 0.000000
vn -0.000000 -0.000000 0.100000
vn -0.000000 -0.000000 0.100000
vn -0.014115 -0.000000 0.098999
vn -0.014115 -0.000000 0.098999
vn -0.027948 -0.000000 0.096015
vn -0.027948 -0.000000 0.096015
vn -0.041221 -0.000000 0.091109
vn -0.041221 -0.000000 0.091109
vn -0.053668 -0.000000 0.084379
vn -0.053668 -0.000000 0.084379
vn 0.100000 0.000000 0.000000
vn 0.100000 0.000000 0.000000
vn 0.100000 0.000000 0.000000
vn 0.100000 0.000000 0.000000
vn 0.000000 -0.100000 -0.000000
vn 0.000000 -0.100000 -0.000000
vn 0.000000 -0.100000 -0.000000
vn 0.000000 -0.100000 -0.000000
vn 0.000000 -0.100000 -0.000000
vn 0.000000 -0.100000 -0.000000
vn 0.000000 -0.100000 -0.000000
vn 0.000000 -0.100000 -0.000000
vn 0.000000 -0.100000 -0.000000
vn 0.000000 -0.100000 -0.000000
usemtl Steel_-_Satin
f 2/1/1 3/2/2 1/3/3
f 1/3/3 3/2/2 4/4/4
f 4/5/5 3/6/6 12/7/7
f 12/7/7 3/6/6 5/8/8
f 12/7/7 5/8/8 11/9/9
f 11/9/9 5/8/8 6/10/10
f 11/9/9 6/10/10 10/11/11
f 10/11/11 6/10/10 7/12/12
f 10/11/11 7/12/12 8/13/13
f 8/13/13 9/14/14 10/11/11
f 3/15/15 2/16/16 5/17/17
f 5/17/17 2/16/16 13/18/18
f 5/17/17 13/18/18 6/19/19
f 6/19/19 13/18/18 14/20/20
f 6/19/19 14/20/20 7/21/21
f 7/21/21 14/20/20 15/22/22
f 7/21/21 15/22/22 8/23/23
f 8/23/23 15/22/22 16/24/24
f 2/25/25 1/26/26 13/27/27
f 13/27/27 1/26/26 17/28/28
f 13/27/27 17/28/28 14/29/29
f 14/29/29 17/28/28 18/30/30
f 14/29/29 18/30/30 15/31/31
f 15/31/31 18/30/30 19/32/32
f 15/31/31 19/32/32 16/33/33
f 16/33/33 19/32/32 20/34/34
f 16/35/35 20/36/36 8/37/37
f 8/37/37 20/36/36 9/38/38
f 4/39/39 12/40/40 1/41/41
f 1/41/41 12/40/40 17/42/42
f 17/42/42 12/40/40 11/43/43
f 17/42/42 11/43/43 18/44/44
f 18/44/44 11/43/43 10/45/45
f 18/44/44 10/45/45 19/46/46
f 19/46/46 10/45/45 9/47/47
f 19/46/46 9/47/47 20/48/48
# 20 vertices
# 48 texture params
# 48 normals
# 36 facets

# 1 groups
