# WaveFront *.obj file (generated by Autodesk ATF)

mtllib 26662ac4-b23e-4c8d-9500-8b744b3b3e3a.mtl

g ns_bastion

v -4.000000 7.000000 28.000000
v -5.000000 6.000000 28.000000
v -4.000000 5.585787 29.000000
v -3.585787 6.000000 29.000000
v -5.000000 2.000000 28.000000
v -4.000000 2.414214 29.000000
v -3.000000 0.000000 28.000000
v -2.585787 1.000000 29.000000
v 0.000000 1.000000 29.000000
v -0.647048 1.085185 29.000000
v -1.250000 1.334937 29.000000
v -1.767767 1.732233 29.000000
v -2.165064 2.250000 29.000000
v -2.414815 2.852952 29.000000
v -2.500000 3.500000 29.000000
v -2.414815 4.147048 29.000000
v -2.165064 4.750000 29.000000
v -1.767767 5.267767 29.000000
v -1.250000 5.665064 29.000000
v -0.647048 5.914815 29.000000
v 0.000000 6.000000 29.000000
v -4.000000 7.000000 25.000000
v -5.000000 6.000000 25.000000
v -5.000000 2.000000 25.000000
v -3.000000 0.000000 25.000000
v -13.000000 4.171573 25.000000
v -9.171573 8.000000 25.000000
v -10.000000 10.000000 23.000000
v -15.000000 5.000000 23.000000
v -13.000000 -3.763932 25.000000
v -15.000000 -5.000000 23.000000
v -5.000000 -10.000000 23.000000
v -4.527864 -8.000000 25.000000
v -10.000000 10.000000 0.000000
v -15.000000 5.000000 0.000000
v -15.000000 -5.000000 0.000000
v -7.000000 -0.500000 25.000000
v -7.647048 -0.585185 25.000000
v -8.250000 -0.834937 25.000000
v -8.767767 -1.232233 25.000000
v -9.165064 -1.750000 25.000000
v -9.414815 -2.352952 25.000000
v -9.500000 -3.000000 25.000000
v -9.414815 -3.647048 25.000000
v -9.165064 -4.250000 25.000000
v -8.767767 -4.767767 25.000000
v -8.250000 -5.165064 25.000000
v -7.647048 -5.414815 25.000000
v -7.000000 -5.500000 25.000000
v -6.352952 -5.414815 25.000000
v -5.750000 -5.165064 25.000000
v -5.232233 -4.767767 25.000000
v -4.834937 -4.250000 25.000000
v -4.585186 -3.647048 25.000000
v -4.500000 -3.000000 25.000000
v -4.585186 -2.352952 25.000000
v -4.834937 -1.750000 25.000000
v -5.232233 -1.232233 25.000000
v -5.750000 -0.834937 25.000000
v -6.352952 -0.585185 25.000000
v -7.000000 -0.500000 24.000000
v -6.352952 -0.585185 24.000000
v -5.750000 -0.834937 24.000000
v -5.232233 -1.232233 24.000000
v -4.834937 -1.750000 24.000000
v -4.585186 -2.352952 24.000000
v -4.500000 -3.000000 24.000000
v -4.585186 -3.647048 24.000000
v -4.834937 -4.250000 24.000000
v -5.232233 -4.767767 24.000000
v -5.750000 -5.165064 24.000000
v -6.352952 -5.414815 24.000000
v -7.000000 -5.500000 24.000000
v -7.647048 -5.414815 24.000000
v -8.250000 -5.165064 24.000000
v -8.767767 -4.767767 24.000000
v -9.165064 -4.250000 24.000000
v -9.414815 -3.647048 24.000000
v -9.500000 -3.000000 24.000000
v -9.414815 -2.352952 24.000000
v -9.165064 -1.750000 24.000000
v -8.767767 -1.232233 24.000000
v -8.250000 -0.834937 24.000000
v -7.647048 -0.585185 24.000000
v -5.000000 -10.000000 0.000000
v 4.000000 7.000000 28.000000
v 3.585787 6.000000 29.000000
v 5.000000 6.000000 28.000000
v 4.000000 5.585787 29.000000
v 5.000000 2.000000 28.000000
v 4.000000 2.414214 29.000000
v 3.000000 0.000000 28.000000
v 2.585787 1.000000 29.000000
v 0.647048 5.914815 29.000000
v 1.250000 5.665064 29.000000
v 1.767767 5.267767 29.000000
v 2.165064 4.750000 29.000000
v 2.414815 4.147048 29.000000
v 2.500000 3.500000 29.000000
v 2.414815 2.852952 29.000000
v 2.165064 2.250000 29.000000
v 1.767767 1.732233 29.000000
v 1.250000 1.334937 29.000000
v 0.647048 1.085185 29.000000
v 5.000000 6.000000 25.000000
v 4.000000 7.000000 25.000000
v 5.000000 2.000000 25.000000
v 3.000000 0.000000 25.000000
v 0.000000 6.000000 28.000000
v -0.647048 5.914815 28.000000
v -1.250000 5.665064 28.000000
v -1.767767 5.267767 28.000000
v -2.165064 4.750000 28.000000
v -2.414815 4.147048 28.000000
v -2.500000 3.500000 28.000000
v -2.414815 2.852952 28.000000
v -2.165064 2.250000 28.000000
v -1.767767 1.732233 28.000000
v -1.250000 1.334937 28.000000
v -0.647048 1.085185 28.000000
v -0.000000 1.000000 28.000000
v 0.647048 1.085185 28.000000
v 1.250000 1.334937 28.000000
v 1.767767 1.732233 28.000000
v 2.165064 2.250000 28.000000
v 2.414815 2.852952 28.000000
v 2.500000 3.500000 28.000000
v 2.414815 4.147048 28.000000
v 2.165064 4.750000 28.000000
v 1.767767 5.267767 28.000000
v 1.250000 5.665064 28.000000
v 0.647048 5.914815 28.000000
v 10.000000 10.000000 23.000000
v 9.171573 8.000000 25.000000
v 13.000000 4.171573 25.000000
v 15.000000 5.000000 23.000000
v 13.000000 -3.763932 25.000000
v 15.000000 -5.000000 23.000000
v 5.000000 -10.000000 23.000000
v 4.527864 -8.000000 25.000000
v 7.000000 -0.500000 25.000000
v 7.647048 -0.585185 25.000000
v 8.250000 -0.834937 25.000000
v 8.767767 -1.232233 25.000000
v 9.165064 -1.750000 25.000000
v 9.414815 -2.352952 25.000000
v 9.500000 -3.000000 25.000000
v 9.414815 -3.647048 25.000000
v 9.165064 -4.250000 25.000000
v 8.767767 -4.767767 25.000000
v 8.250000 -5.165064 25.000000
v 7.647048 -5.414815 25.000000
v 7.000000 -5.500000 25.000000
v 6.352952 -5.414815 25.000000
v 5.750000 -5.165064 25.000000
v 5.232233 -4.767767 25.000000
v 4.834937 -4.250000 25.000000
v 4.585186 -3.647048 25.000000
v 4.500000 -3.000000 25.000000
v 4.585186 -2.352952 25.000000
v 4.834937 -1.750000 25.000000
v 5.232233 -1.232233 25.000000
v 5.750000 -0.834937 25.000000
v 6.352952 -0.585185 25.000000
v 15.000000 5.000000 0.000000
v 10.000000 10.000000 0.000000
v 15.000000 -5.000000 0.000000
v 5.000000 -10.000000 0.000000
v 7.000000 -0.500000 24.000000
v 7.647048 -0.585185 24.000000
v 8.250000 -0.834937 24.000000
v 8.767767 -1.232233 24.000000
v 9.165064 -1.750000 24.000000
v 9.414815 -2.352952 24.000000
v 9.500000 -3.000000 24.000000
v 9.414815 -3.647048 24.000000
v 9.165064 -4.250000 24.000000
v 8.767767 -4.767767 24.000000
v 8.250000 -5.165064 24.000000
v 7.647048 -5.414815 24.000000
v 7.000000 -5.500000 24.000000
v 6.352952 -5.414815 24.000000
v 5.750000 -5.165064 24.000000
v 5.232233 -4.767767 24.000000
v 4.834937 -4.250000 24.000000
v 4.585186 -3.647048 24.000000
v 4.500000 -3.000000 24.000000
v 4.585186 -2.352952 24.000000
v 4.834937 -1.750000 24.000000
v 5.232233 -1.232233 24.000000
v 5.750000 -0.834937 24.000000
v 6.352952 -0.585185 24.000000
vt 0.003502 0.127427 0.000000
vt -0.078147 0.011957 0.000000
vt 0.095058 0.011957 0.000000
vt 0.061237 -0.035872 0.000000
vt -0.070711 0.250000 0.000000
vt -0.070711 -0.150000 0.000000
vt 0.070711 0.208579 0.000000
vt 0.070711 -0.108579 0.000000
vt -0.118972 0.045778 0.000000
vt 0.044327 -0.185162 0.000000
vt 0.020412 0.093607 0.000000
vt 0.135882 -0.069692 0.000000
vt 0.250000 0.250000 0.000000
vt 0.241481 0.185295 0.000000
vt 0.250000 -0.008579 0.000000
vt 0.216506 0.125000 0.000000
vt 0.176777 0.073223 0.000000
vt 0.125000 0.033494 0.000000
vt 0.108579 -0.150000 0.000000
vt 0.064705 0.008519 0.000000
vt -0.000000 0.000000 0.000000
vt -0.208579 -0.150000 0.000000
vt -0.064705 0.008519 0.000000
vt -0.250000 -0.108579 0.000000
vt -0.125000 0.033494 0.000000
vt -0.176777 0.073223 0.000000
vt -0.216506 0.125000 0.000000
vt -0.241481 0.185295 0.000000
vt -0.250000 0.250000 0.000000
vt 0.100000 0.070711 0.000000
vt -0.200000 0.070711 0.000000
vt 0.100000 -0.070711 0.000000
vt -0.200000 -0.070711 0.000000
vt 0.100000 0.250000 0.000000
vt -0.200000 0.250000 0.000000
vt 0.100000 -0.150000 0.000000
vt -0.200000 -0.150000 0.000000
vt 0.100000 0.141421 0.000000
vt -0.200000 0.141421 0.000000
vt 0.100000 -0.141421 0.000000
vt -0.200000 -0.141421 0.000000
vt 0.169703 -0.004953 0.000000
vt -0.013408 0.225987 0.000000
vt -0.142887 -0.447022 0.000000
vt -0.421656 -0.351363 0.000000
vt 0.141421 0.417157 0.000000
vt -0.141421 0.500000 0.000000
vt 0.141421 -0.376393 0.000000
vt -0.141421 -0.500000 0.000000
vt 0.146568 -0.276844 0.000000
vt 0.271318 -0.018645 0.000000
vt -0.766303 0.368653 0.000000
vt -0.502079 0.528229 0.000000
vt 1.050000 0.353553 0.000000
vt -1.250000 0.353553 0.000000
vt 1.050000 -0.353553 0.000000
vt -1.250000 -0.353553 0.000000
vt -1.050000 -0.500000 0.000000
vt 1.250000 -0.500000 0.000000
vt -1.050000 0.500000 0.000000
vt 1.250000 0.500000 0.000000
vt 0.050000 0.065450 0.000000
vt -0.050000 0.065450 0.000000
vt 0.050000 0.000000 0.000000
vt -0.050000 0.000000 0.000000
vt 0.050000 -0.065450 0.000000
vt -0.050000 -0.065450 0.000000
vt 0.050000 -0.130900 0.000000
vt -0.050000 -0.130900 0.000000
vt 0.050000 -0.196350 0.000000
vt -0.050000 -0.196350 0.000000
vt 0.050000 -0.261799 0.000000
vt -0.050000 -0.261799 0.000000
vt 0.050000 -0.327249 0.000000
vt -0.050000 -0.327249 0.000000
vt 0.050000 -0.392699 0.000000
vt -0.050000 -0.392699 0.000000
vt 0.050000 -0.458149 0.000000
vt -0.050000 -0.458149 0.000000
vt 0.050000 -0.523599 0.000000
vt -0.050000 -0.523599 0.000000
vt 0.050000 -0.589049 0.000000
vt -0.050000 -0.589049 0.000000
vt 0.050000 -0.654498 0.000000
vt -0.050000 -0.654498 0.000000
vt 0.050000 -0.719948 0.000000
vt -0.050000 -0.719948 0.000000
vt 0.050000 -0.785398 0.000000
vt -0.050000 -0.785398 0.000000
vt 0.050000 0.785398 0.000000
vt -0.050000 0.785398 0.000000
vt 0.050000 0.719948 0.000000
vt -0.050000 0.719948 0.000000
vt 0.050000 0.654498 0.000000
vt -0.050000 0.654498 0.000000
vt 0.050000 0.589049 0.000000
vt -0.050000 0.589049 0.000000
vt 0.050000 0.523599 0.000000
vt -0.050000 0.523599 0.000000
vt 0.050000 0.458149 0.000000
vt -0.050000 0.458149 0.000000
vt 0.050000 0.392699 0.000000
vt -0.050000 0.392699 0.000000
vt 0.050000 0.327249 0.000000
vt -0.050000 0.327249 0.000000
vt 0.050000 0.261799 0.000000
vt -0.050000 0.261799 0.000000
vt 0.050000 0.196350 0.000000
vt -0.050000 0.196350 0.000000
vt 0.050000 0.130900 0.000000
vt -0.050000 0.130900 0.000000
vt 0.241481 0.064705 0.000000
vt -0.241481 0.064705 0.000000
vt 0.250000 -0.000000 0.000000
vt -0.250000 0.000000 0.000000
vt 0.241481 -0.064705 0.000000
vt -0.241481 -0.064705 0.000000
vt 0.216506 -0.125000 0.000000
vt -0.216506 -0.125000 0.000000
vt 0.176777 -0.176777 0.000000
vt -0.176777 -0.176777 0.000000
vt 0.125000 -0.216506 0.000000
vt -0.125000 -0.216506 0.000000
vt 0.064705 -0.241481 0.000000
vt -0.064705 -0.241481 0.000000
vt -0.000000 -0.250000 0.000000
vt -0.216506 0.125000 0.000000
vt 0.216506 0.125000 0.000000
vt -0.176777 0.176777 0.000000
vt 0.176777 0.176777 0.000000
vt -0.125000 0.216506 0.000000
vt 0.125000 0.216506 0.000000
vt -0.064705 0.241481 0.000000
vt 0.064705 0.241481 0.000000
vt 0.000000 0.250000 0.000000
vt 1.050000 0.559017 0.000000
vt -1.250000 0.559017 0.000000
vt 1.050000 -0.559017 0.000000
vt -1.250000 -0.559017 0.000000
vt 0.108579 -0.070711 0.000000
vt 0.150000 0.070711 0.000000
vt -0.250000 -0.070711 0.000000
vt -0.650000 0.070711 0.000000
vt -0.608579 -0.070711 0.000000
vt -0.003502 0.127427 0.000000
vt -0.095058 0.011957 0.000000
vt 0.078147 0.011957 0.000000
vt -0.061237 -0.035872 0.000000
vt 0.070711 0.250000 0.000000
vt -0.070711 0.208579 0.000000
vt 0.070711 -0.150000 0.000000
vt -0.070711 -0.108579 0.000000
vt 0.118972 0.045778 0.000000
vt -0.020412 0.093607 0.000000
vt -0.044327 -0.185162 0.000000
vt -0.135882 -0.069692 0.000000
vt 0.008579 0.070711 0.000000
vt -0.250000 0.070711 0.000000
vt 0.050000 -0.070711 0.000000
vt -0.550000 -0.070711 0.000000
vt -0.508579 0.070711 0.000000
vt -0.250000 0.250000 0.000000
vt -0.250000 -0.008579 0.000000
vt -0.241481 0.185295 0.000000
vt -0.216506 0.125000 0.000000
vt -0.176777 0.073223 0.000000
vt -0.125000 0.033494 0.000000
vt -0.108579 -0.150000 0.000000
vt -0.064705 0.008519 0.000000
vt 0.000000 0.000000 0.000000
vt 0.208579 -0.150000 0.000000
vt 0.064705 0.008519 0.000000
vt 0.250000 -0.108579 0.000000
vt 0.125000 0.033494 0.000000
vt 0.176777 0.073223 0.000000
vt 0.216506 0.125000 0.000000
vt 0.241481 0.185295 0.000000
vt 0.250000 0.250000 0.000000
vt -0.100000 -0.070711 0.000000
vt 0.200000 -0.070711 0.000000
vt -0.100000 0.070711 0.000000
vt 0.200000 0.070711 0.000000
vt -0.100000 -0.150000 0.000000
vt 0.200000 -0.150000 0.000000
vt -0.100000 0.250000 0.000000
vt 0.200000 0.250000 0.000000
vt -0.100000 -0.141421 0.000000
vt 0.200000 -0.141421 0.000000
vt -0.100000 0.141421 0.000000
vt 0.200000 0.141421 0.000000
vt 0.100000 0.550000 0.000000
vt -0.200000 0.550000 0.000000
vt 0.100000 -0.050000 0.000000
vt -0.200000 -0.050000 0.000000
vt -0.241481 -0.064705 0.000000
vt 0.241481 -0.064705 0.000000
vt -0.250000 0.000000 0.000000
vt 0.250000 -0.000000 0.000000
vt -0.241481 0.064705 0.000000
vt 0.241481 0.064705 0.000000
vt -0.216506 0.125000 0.000000
vt 0.216506 0.125000 0.000000
vt -0.176777 0.176777 0.000000
vt 0.176777 0.176777 0.000000
vt -0.125000 0.216506 0.000000
vt 0.125000 0.216506 0.000000
vt -0.064705 0.241481 0.000000
vt 0.064705 0.241481 0.000000
vt 0.000000 0.250000 0.000000
vt 0.216506 -0.125000 0.000000
vt -0.216506 -0.125000 0.000000
vt 0.176777 -0.176777 0.000000
vt -0.176777 -0.176777 0.000000
vt 0.125000 -0.216506 0.000000
vt -0.125000 -0.216506 0.000000
vt 0.064705 -0.241481 0.000000
vt -0.064705 -0.241481 0.000000
vt -0.000000 -0.250000 0.000000
vt 0.050000 0.065450 0.000000
vt -0.050000 0.065450 0.000000
vt 0.050000 0.000000 0.000000
vt -0.050000 0.000000 0.000000
vt 0.050000 -0.065450 0.000000
vt -0.050000 -0.065450 0.000000
vt 0.050000 -0.130900 0.000000
vt -0.050000 -0.130900 0.000000
vt 0.050000 -0.196350 0.000000
vt -0.050000 -0.196350 0.000000
vt 0.050000 -0.261799 0.000000
vt -0.050000 -0.261799 0.000000
vt 0.050000 -0.327249 0.000000
vt -0.050000 -0.327249 0.000000
vt 0.050000 -0.392699 0.000000
vt -0.050000 -0.392699 0.000000
vt 0.050000 -0.458149 0.000000
vt -0.050000 -0.458149 0.000000
vt 0.050000 -0.523599 0.000000
vt -0.050000 -0.523599 0.000000
vt 0.050000 -0.589049 0.000000
vt -0.050000 -0.589049 0.000000
vt 0.050000 -0.654498 0.000000
vt -0.050000 -0.654498 0.000000
vt 0.050000 -0.719948 0.000000
vt -0.050000 -0.719948 0.000000
vt 0.050000 -0.785398 0.000000
vt -0.050000 -0.785398 0.000000
vt 0.050000 0.785398 0.000000
vt -0.050000 0.785398 0.000000
vt 0.050000 0.719948 0.000000
vt -0.050000 0.719948 0.000000
vt 0.050000 0.654498 0.000000
vt -0.050000 0.654498 0.000000
vt 0.050000 0.589049 0.000000
vt -0.050000 0.589049 0.000000
vt 0.050000 0.523599 0.000000
vt -0.050000 0.523599 0.000000
vt 0.050000 0.458149 0.000000
vt -0.050000 0.458149 0.000000
vt 0.050000 0.392699 0.000000
vt -0.050000 0.392699 0.000000
vt 0.050000 0.327249 0.000000
vt -0.050000 0.327249 0.000000
vt 0.050000 0.261799 0.000000
vt -0.050000 0.261799 0.000000
vt 0.050000 0.196350 0.000000
vt -0.050000 0.196350 0.000000
vt 0.050000 0.130900 0.000000
vt -0.050000 0.130900 0.000000
vt -0.100000 -0.150000 0.000000
vt 0.200000 -0.150000 0.000000
vt -0.100000 0.650000 0.000000
vt 0.200000 0.650000 0.000000
vt 1.000000 0.141421 0.000000
vt -1.000000 0.141421 0.000000
vt 0.917157 -0.141421 0.000000
vt -0.917157 -0.141421 0.000000
vt -0.169703 -0.004953 0.000000
vt 0.142887 -0.447022 0.000000
vt 0.013408 0.225987 0.000000
vt 0.421656 -0.351363 0.000000
vt -0.141421 0.417157 0.000000
vt -0.141421 -0.376393 0.000000
vt 0.141421 0.500000 0.000000
vt 0.141421 -0.500000 0.000000
vt -0.146568 -0.276844 0.000000
vt 0.766303 0.368653 0.000000
vt -0.271318 -0.018645 0.000000
vt 0.502079 0.528229 0.000000
vt 0.452786 0.141421 0.000000
vt -0.452786 0.141421 0.000000
vt 0.500000 -0.141421 0.000000
vt -0.500000 -0.141421 0.000000
vt -0.600000 -0.500000 0.000000
vt -0.700000 -0.400000 0.000000
vt -0.800000 -0.917157 0.000000
vt -0.700000 0.400000 0.000000
vt -0.800000 0.917157 0.000000
vt -0.600000 0.500000 0.000000
vt -0.417157 1.300000 0.000000
vt -0.200000 0.500000 0.000000
vt 0.058519 0.764705 0.000000
vt 0.050000 0.700000 0.000000
vt 0.058519 0.635295 0.000000
vt 0.000000 0.300000 0.000000
vt 0.083494 0.575000 0.000000
vt 0.123223 0.523223 0.000000
vt 0.175000 0.483494 0.000000
vt 0.235295 0.458519 0.000000
vt 0.000000 -0.300000 0.000000
vt 0.235295 -0.458519 0.000000
vt 0.175000 -0.483494 0.000000
vt 0.123223 -0.523223 0.000000
vt 0.083494 -0.575000 0.000000
vt 0.058519 -0.635295 0.000000
vt -0.200000 -0.500000 0.000000
vt 0.050000 -0.700000 0.000000
vt 0.058519 -0.764705 0.000000
vt -0.417157 -1.300000 0.000000
vt 0.083494 -0.825000 0.000000
vt 0.123223 -0.876777 0.000000
vt 0.175000 -0.916506 0.000000
vt 0.376393 -1.300000 0.000000
vt 0.235295 -0.941481 0.000000
vt 0.300000 -0.950000 0.000000
vt 0.364705 -0.941481 0.000000
vt 0.425000 -0.916506 0.000000
vt 0.476777 -0.876777 0.000000
vt 0.516506 -0.825000 0.000000
vt 0.800000 -0.452786 0.000000
vt 0.541481 -0.764705 0.000000
vt 0.550000 -0.700000 0.000000
vt 0.541481 -0.635295 0.000000
vt 0.516506 -0.575000 0.000000
vt 0.476777 -0.523223 0.000000
vt 0.476777 0.523223 0.000000
vt 0.425000 0.483494 0.000000
vt 0.300000 0.450000 0.000000
vt 0.300000 -0.450000 0.000000
vt 0.364705 0.458519 0.000000
vt 0.364705 -0.458519 0.000000
vt 0.425000 -0.483494 0.000000
vt 0.800000 0.452786 0.000000
vt 0.516506 0.575000 0.000000
vt 0.541481 0.635295 0.000000
vt 0.550000 0.700000 0.000000
vt 0.541481 0.764705 0.000000
vt 0.516506 0.825000 0.000000
vt 0.376393 1.300000 0.000000
vt 0.476777 0.876777 0.000000
vt 0.425000 0.916506 0.000000
vt 0.364705 0.941481 0.000000
vt 0.300000 0.950000 0.000000
vt 0.235295 0.941481 0.000000
vt 0.175000 0.916506 0.000000
vt 0.123223 0.876777 0.000000
vt 0.083494 0.825000 0.000000
vt -1.050000 -0.353553 0.000000
vt 1.250000 -0.353553 0.000000
vt -1.050000 0.353553 0.000000
vt 1.250000 0.353553 0.000000
vt 1.050000 0.500000 0.000000
vt -1.250000 0.500000 0.000000
vt 1.050000 -0.500000 0.000000
vt -1.250000 -0.500000 0.000000
vt -1.050000 -0.500000 0.000000
vt 1.250000 -0.500000 0.000000
vt -1.050000 0.500000 0.000000
vt 1.250000 0.500000 0.000000
vt -0.050000 -0.065450 0.000000
vt 0.050000 -0.065450 0.000000
vt -0.050000 0.000000 0.000000
vt 0.050000 0.000000 0.000000
vt -0.050000 0.065450 0.000000
vt 0.050000 0.065450 0.000000
vt -0.050000 0.130900 0.000000
vt 0.050000 0.130900 0.000000
vt -0.050000 0.196350 0.000000
vt 0.050000 0.196350 0.000000
vt -0.050000 0.261799 0.000000
vt 0.050000 0.261799 0.000000
vt -0.050000 0.327249 0.000000
vt 0.050000 0.327249 0.000000
vt -0.050000 0.392699 0.000000
vt 0.050000 0.392699 0.000000
vt -0.050000 0.458149 0.000000
vt 0.050000 0.458149 0.000000
vt -0.050000 0.523599 0.000000
vt 0.050000 0.523599 0.000000
vt -0.050000 0.589049 0.000000
vt 0.050000 0.589049 0.000000
vt -0.050000 0.654498 0.000000
vt 0.050000 0.654498 0.000000
vt -0.050000 0.719948 0.000000
vt 0.050000 0.719948 0.000000
vt -0.050000 0.785398 0.000000
vt 0.050000 0.785398 0.000000
vt -0.050000 -0.785398 0.000000
vt 0.050000 -0.785398 0.000000
vt -0.050000 -0.719948 0.000000
vt 0.050000 -0.719948 0.000000
vt -0.050000 -0.654498 0.000000
vt 0.050000 -0.654498 0.000000
vt -0.050000 -0.589049 0.000000
vt 0.050000 -0.589049 0.000000
vt -0.050000 -0.523599 0.000000
vt 0.050000 -0.523599 0.000000
vt -0.050000 -0.458149 0.000000
vt 0.050000 -0.458149 0.000000
vt -0.050000 -0.392699 0.000000
vt 0.050000 -0.392699 0.000000
vt -0.050000 -0.327249 0.000000
vt 0.050000 -0.327249 0.000000
vt -0.050000 -0.261799 0.000000
vt 0.050000 -0.261799 0.000000
vt -0.050000 -0.196350 0.000000
vt 0.050000 -0.196350 0.000000
vt -0.050000 -0.130900 0.000000
vt 0.050000 -0.130900 0.000000
vt -0.241481 -0.064705 0.000000
vt 0.241481 -0.064705 0.000000
vt -0.250000 0.000000 0.000000
vt 0.250000 0.000000 0.000000
vt -0.241481 0.064705 0.000000
vt 0.241481 0.064705 0.000000
vt -0.216506 0.125000 0.000000
vt 0.216506 0.125000 0.000000
vt -0.176777 0.176777 0.000000
vt 0.176777 0.176777 0.000000
vt -0.125000 0.216506 0.000000
vt 0.125000 0.216506 0.000000
vt -0.064705 0.241481 0.000000
vt 0.064705 0.241481 0.000000
vt -0.000000 0.250000 0.000000
vt 0.216506 -0.125000 0.000000
vt -0.216506 -0.125000 0.000000
vt 0.176777 -0.176777 0.000000
vt -0.176777 -0.176777 0.000000
vt 0.125000 -0.216506 0.000000
vt -0.125000 -0.216506 0.000000
vt 0.064705 -0.241481 0.000000
vt -0.064705 -0.241481 0.000000
vt 0.000000 -0.250000 0.000000
vt -1.050000 -0.559017 0.000000
vt 1.250000 -0.559017 0.000000
vt -1.050000 0.559017 0.000000
vt 1.250000 0.559017 0.000000
vt 1.000000 1.000000 0.000000
vt 0.500000 1.500000 0.000000
vt 1.000000 -1.000000 0.000000
vt 0.500000 -1.500000 0.000000
vt -0.500000 1.500000 0.000000
vt -1.000000 0.500000 0.000000
vt -1.000000 -0.500000 0.000000
vt -0.500000 -1.500000 0.000000
vt 1.050000 1.000000 0.000000
vt -1.250000 1.000000 0.000000
vt 1.050000 -1.000000 0.000000
vt -1.250000 -1.000000 0.000000
vn -0.050000 0.050000 0.070711
vn -0.050000 0.050000 0.070711
vn -0.050000 0.050000 0.070711
vn -0.050000 0.050000 0.070711
vn -0.070711 0.000000 0.070711
vn -0.070711 0.000000 0.070711
vn -0.070711 0.000000 0.070711
vn -0.070711 0.000000 0.070711
vn -0.050000 -0.050000 0.070711
vn -0.050000 -0.050000 0.070711
vn -0.050000 -0.050000 0.070711
vn -0.050000 -0.050000 0.070711
vn 0.000000 0.000000 0.100000
vn 0.000000 0.000000 0.100000
vn 0.000000 0.000000 0.100000
vn 0.000000 0.000000 0.100000
vn 0.000000 0.000000 0.100000
vn 0.000000 0.000000 0.100000
vn 0.000000 0.000000 0.100000
vn 0.000000 0.000000 0.100000
vn 0.000000 0.000000 0.100000
vn 0.000000 0.000000 0.100000
vn 0.000000 0.000000 0.100000
vn 0.000000 0.000000 0.100000
vn 0.000000 0.000000 0.100000
vn 0.000000 0.000000 0.100000
vn 0.000000 0.000000 0.100000
vn 0.000000 0.000000 0.100000
vn 0.000000 0.000000 0.100000
vn -0.070711 0.070711 0.000000
vn -0.070711 0.070711 0.000000
vn -0.070711 0.070711 0.000000
vn -0.070711 0.070711 0.000000
vn -0.100000 0.000000 0.000000
vn -0.100000 0.000000 0.000000
vn -0.100000 0.000000 0.000000
vn -0.100000 0.000000 0.000000
vn -0.070711 -0.070711 0.000000
vn -0.070711 -0.070711 0.000000
vn -0.070711 -0.070711 0.000000
vn -0.070711 -0.070711 0.000000
vn -0.050000 0.050000 0.070711
vn -0.050000 0.050000 0.070711
vn -0.050000 0.050000 0.070711
vn -0.050000 0.050000 0.070711
vn -0.070711 0.000000 0.070711
vn -0.070711 0.000000 0.070711
vn -0.070711 0.000000 0.070711
vn -0.070711 0.000000 0.070711
vn -0.031623 -0.063246 0.070711
vn -0.031623 -0.063246 0.070711
vn -0.031623 -0.063246 0.070711
vn -0.031623 -0.063246 0.070711
vn -0.070711 0.070711 0.000000
vn -0.070711 0.070711 0.000000
vn -0.070711 0.070711 0.000000
vn -0.070711 0.070711 0.000000
vn -0.100000 0.000000 0.000000
vn -0.100000 0.000000 0.000000
vn -0.100000 0.000000 0.000000
vn -0.100000 0.000000 0.000000
vn 0.025882 -0.096593 0.000000
vn 0.025882 -0.096593 0.000000
vn 0.000000 -0.100000 0.000000
vn 0.000000 -0.100000 0.000000
vn -0.025882 -0.096593 0.000000
vn -0.025882 -0.096593 0.000000
vn -0.050000 -0.086603 0.000000
vn -0.050000 -0.086603 0.000000
vn -0.070711 -0.070711 0.000000
vn -0.070711 -0.070711 0.000000
vn -0.086603 -0.050000 0.000000
vn -0.086603 -0.050000 0.000000
vn -0.096593 -0.025882 0.000000
vn -0.096593 -0.025882 0.000000
vn -0.100000 0.000000 -0.000000
vn -0.100000 0.000000 -0.000000
vn -0.096593 0.025882 -0.000000
vn -0.096593 0.025882 -0.000000
vn -0.086603 0.050000 -0.000000
vn -0.086603 0.050000 -0.000000
vn -0.070711 0.070711 -0.000000
vn -0.070711 0.070711 -0.000000
vn -0.050000 0.086603 -0.000000
vn -0.050000 0.086603 -0.000000
vn -0.025882 0.096593 -0.000000
vn -0.025882 0.096593 -0.000000
vn -0.000000 0.100000 -0.000000
vn -0.000000 0.100000 -0.000000
vn 0.025882 0.096593 0.000000
vn 0.025882 0.096593 0.000000
vn 0.050000 0.086603 0.000000
vn 0.050000 0.086603 0.000000
vn 0.070711 0.070711 0.000000
vn 0.070711 0.070711 0.000000
vn 0.086603 0.050000 0.000000
vn 0.086603 0.050000 0.000000
vn 0.096593 0.025882 0.000000
vn 0.096593 0.025882 0.000000
vn 0.100000 -0.000000 0.000000
vn 0.100000 -0.000000 0.000000
vn 0.096593 -0.025882 0.000000
vn 0.096593 -0.025882 0.000000
vn 0.086603 -0.050000 0.000000
vn 0.086603 -0.050000 0.000000
vn 0.070711 -0.070711 0.000000
vn 0.070711 -0.070711 0.000000
vn 0.050000 -0.086603 0.000000
vn 0.050000 -0.086603 0.000000
vn 0.000000 0.000000 0.100000
vn 0.000000 0.000000 0.100000
vn 0.000000 0.000000 0.100000
vn 0.000000 0.000000 0.100000
vn 0.000000 0.000000 0.100000
vn 0.000000 0.000000 0.100000
vn 0.000000 0.000000 0.100000
vn 0.000000 0.000000 0.100000
vn 0.000000 0.000000 0.100000
vn 0.000000 0.000000 0.100000
vn 0.000000 0.000000 0.100000
vn 0.000000 0.000000 0.100000
vn 0.000000 0.000000 0.100000
vn 0.000000 0.000000 0.100000
vn 0.000000 0.000000 0.100000
vn 0.000000 0.000000 0.100000
vn 0.000000 0.000000 0.100000
vn 0.000000 0.000000 0.100000
vn 0.000000 0.000000 0.100000
vn 0.000000 0.000000 0.100000
vn 0.000000 0.000000 0.100000
vn 0.000000 0.000000 0.100000
vn 0.000000 0.000000 0.100000
vn 0.000000 0.000000 0.100000
vn -0.044721 -0.089443 0.000000
vn -0.044721 -0.089443 0.000000
vn -0.044721 -0.089443 0.000000
vn -0.044721 -0.089443 0.000000
vn 0.000000 0.070711 0.070711
vn 0.000000 0.070711 0.070711
vn 0.000000 0.070711 0.070711
vn 0.000000 0.070711 0.070711
vn 0.000000 0.070711 0.070711
vn 0.050000 0.050000 0.070711
vn 0.050000 0.050000 0.070711
vn 0.050000 0.050000 0.070711
vn 0.050000 0.050000 0.070711
vn 0.070711 -0.000000 0.070711
vn 0.070711 -0.000000 0.070711
vn 0.070711 -0.000000 0.070711
vn 0.070711 -0.000000 0.070711
vn 0.050000 -0.050000 0.070711
vn 0.050000 -0.050000 0.070711
vn 0.050000 -0.050000 0.070711
vn 0.050000 -0.050000 0.070711
vn 0.000000 -0.070711 0.070711
vn 0.000000 -0.070711 0.070711
vn 0.000000 -0.070711 0.070711
vn 0.000000 -0.070711 0.070711
vn 0.000000 -0.070711 0.070711
vn 0.000000 0.000000 0.100000
vn 0.000000 0.000000 0.100000
vn 0.000000 0.000000 0.100000
vn 0.000000 0.000000 0.100000
vn 0.000000 0.000000 0.100000
vn 0.000000 0.000000 0.100000
vn 0.000000 0.000000 0.100000
vn 0.000000 0.000000 0.100000
vn 0.000000 0.000000 0.100000
vn 0.000000 0.000000 0.100000
vn 0.000000 0.000000 0.100000
vn 0.000000 0.000000 0.100000
vn 0.000000 0.000000 0.100000
vn 0.000000 0.000000 0.100000
vn 0.000000 0.000000 0.100000
vn 0.070711 0.070711 0.000000
vn 0.070711 0.070711 0.000000
vn 0.070711 0.070711 0.000000
vn 0.070711 0.070711 0.000000
vn 0.100000 0.000000 0.000000
vn 0.100000 0.000000 0.000000
vn 0.100000 0.000000 0.000000
vn 0.100000 0.000000 0.000000
vn 0.070711 -0.070711 0.000000
vn 0.070711 -0.070711 0.000000
vn 0.070711 -0.070711 0.000000
vn 0.070711 -0.070711 0.000000
vn 0.000000 -0.100000 0.000000
vn 0.000000 -0.100000 0.000000
vn 0.000000 -0.100000 0.000000
vn 0.000000 -0.100000 0.000000
vn 0.000000 0.000000 0.100000
vn 0.000000 0.000000 0.100000
vn 0.000000 0.000000 0.100000
vn 0.000000 0.000000 0.100000
vn 0.000000 0.000000 0.100000
vn 0.000000 0.000000 0.100000
vn 0.000000 0.000000 0.100000
vn 0.000000 0.000000 0.100000
vn 0.000000 0.000000 0.100000
vn 0.000000 0.000000 0.100000
vn 0.000000 0.000000 0.100000
vn 0.000000 0.000000 0.100000
vn 0.000000 0.000000 0.100000
vn 0.000000 0.000000 0.100000
vn 0.000000 0.000000 0.100000
vn 0.000000 0.000000 0.100000
vn 0.000000 0.000000 0.100000
vn 0.000000 0.000000 0.100000
vn 0.000000 0.000000 0.100000
vn 0.000000 0.000000 0.100000
vn 0.000000 0.000000 0.100000
vn 0.000000 0.000000 0.100000
vn 0.000000 0.000000 0.100000
vn 0.000000 0.000000 0.100000
vn -0.025882 -0.096593 0.000000
vn -0.025882 -0.096593 0.000000
vn 0.000000 -0.100000 0.000000
vn 0.000000 -0.100000 0.000000
vn 0.025882 -0.096593 0.000000
vn 0.025882 -0.096593 0.000000
vn 0.050000 -0.086603 0.000000
vn 0.050000 -0.086603 0.000000
vn 0.070711 -0.070711 0.000000
vn 0.070711 -0.070711 0.000000
vn 0.086603 -0.050000 0.000000
vn 0.086603 -0.050000 0.000000
vn 0.096593 -0.025882 0.000000
vn 0.096593 -0.025882 0.000000
vn 0.100000 -0.000000 0.000000
vn 0.100000 -0.000000 0.000000
vn 0.096593 0.025882 0.000000
vn 0.096593 0.025882 0.000000
vn 0.086603 0.050000 0.000000
vn 0.086603 0.050000 0.000000
vn 0.070711 0.070711 0.000000
vn 0.070711 0.070711 0.000000
vn 0.050000 0.086603 0.000000
vn 0.050000 0.086603 0.000000
vn 0.025882 0.096593 0.000000
vn 0.025882 0.096593 0.000000
vn 0.000000 0.100000 0.000000
vn 0.000000 0.100000 0.000000
vn -0.025882 0.096593 0.000000
vn -0.025882 0.096593 0.000000
vn -0.050000 0.086603 0.000000
vn -0.050000 0.086603 0.000000
vn -0.070711 0.070711 0.000000
vn -0.070711 0.070711 0.000000
vn -0.086603 0.050000 0.000000
vn -0.086603 0.050000 0.000000
vn -0.096593 0.025882 0.000000
vn -0.096593 0.025882 0.000000
vn -0.100000 0.000000 0.000000
vn -0.100000 -0.000000 0.000000
vn -0.096593 -0.025882 0.000000
vn -0.096593 -0.025882 0.000000
vn -0.086603 -0.050000 0.000000
vn -0.086603 -0.050000 0.000000
vn -0.070711 -0.070711 0.000000
vn -0.070711 -0.070711 0.000000
vn -0.050000 -0.086603 0.000000
vn -0.050000 -0.086603 0.000000
vn -0.000000 0.100000 -0.000000
vn -0.000000 0.100000 -0.000000
vn -0.000000 0.100000 -0.000000
vn -0.000000 0.100000 -0.000000
vn 0.000000 0.070711 0.070711
vn 0.000000 0.070711 0.070711
vn 0.000000 0.070711 0.070711
vn 0.000000 0.070711 0.070711
vn 0.050000 0.050000 0.070711
vn 0.050000 0.050000 0.070711
vn 0.050000 0.050000 0.070711
vn 0.050000 0.050000 0.070711
vn 0.070711 -0.000000 0.070711
vn 0.070711 -0.000000 0.070711
vn 0.070711 -0.000000 0.070711
vn 0.070711 -0.000000 0.070711
vn 0.031623 -0.063246 0.070711
vn 0.031623 -0.063246 0.070711
vn 0.031623 -0.063246 0.070711
vn 0.031623 -0.063246 0.070711
vn 0.000000 -0.070711 0.070711
vn 0.000000 -0.070711 0.070711
vn 0.000000 -0.070711 0.070711
vn 0.000000 -0.070711 0.070711
vn 0.000000 0.000000 0.100000
vn 0.000000 0.000000 0.100000
vn 0.000000 0.000000 0.100000
vn 0.000000 0.000000 0.100000
vn 0.000000 0.000000 0.100000
vn 0.000000 0.000000 0.100000
vn 0.000000 0.000000 0.100000
vn 0.000000 0.000000 0.100000
vn 0.000000 0.000000 0.100000
vn 0.000000 0.000000 0.100000
vn 0.000000 0.000000 0.100000
vn 0.000000 0.000000 0.100000
vn 0.000000 0.000000 0.100000
vn 0.000000 0.000000 0.100000
vn 0.000000 0.000000 0.100000
vn 0.000000 0.000000 0.100000
vn 0.000000 0.000000 0.100000
vn 0.000000 0.000000 0.100000
vn 0.000000 0.000000 0.100000
vn 0.000000 0.000000 0.100000
vn 0.000000 0.000000 0.100000
vn 0.000000 0.000000 0.100000
vn 0.000000 0.000000 0.100000
vn 0.000000 0.000000 0.100000
vn 0.000000 0.000000 0.100000
vn 0.000000 0.000000 0.100000
vn 0.000000 0.000000 0.100000
vn 0.000000 0.000000 0.100000
vn 0.000000 0.000000 0.100000
vn 0.000000 0.000000 0.100000
vn 0.000000 0.000000 0.100000
vn 0.000000 0.000000 0.100000
vn 0.000000 0.000000 0.100000
vn 0.000000 0.000000 0.100000
vn 0.000000 0.000000 0.100000
vn 0.000000 0.000000 0.100000
vn 0.000000 0.000000 0.100000
vn 0.000000 0.000000 0.100000
vn 0.000000 0.000000 0.100000
vn 0.000000 0.000000 0.100000
vn 0.000000 0.000000 0.100000
vn 0.000000 0.000000 0.100000
vn 0.000000 0.000000 0.100000
vn 0.000000 0.000000 0.100000
vn 0.000000 0.000000 0.100000
vn 0.000000 0.000000 0.100000
vn 0.000000 0.000000 0.100000
vn 0.000000 0.000000 0.100000
vn 0.000000 0.000000 0.100000
vn 0.000000 0.000000 0.100000
vn 0.000000 0.000000 0.100000
vn 0.000000 0.000000 0.100000
vn 0.000000 0.000000 0.100000
vn 0.000000 0.000000 0.100000
vn 0.000000 0.000000 0.100000
vn 0.000000 0.000000 0.100000
vn 0.000000 0.000000 0.100000
vn 0.000000 0.000000 0.100000
vn 0.000000 0.000000 0.100000
vn 0.000000 0.000000 0.100000
vn 0.000000 0.000000 0.100000
vn 0.000000 0.000000 0.100000
vn 0.000000 0.000000 0.100000
vn 0.000000 0.000000 0.100000
vn 0.070711 0.070711 0.000000
vn 0.070711 0.070711 0.000000
vn 0.070711 0.070711 0.000000
vn 0.070711 0.070711 0.000000
vn 0.100000 0.000000 0.000000
vn 0.100000 0.000000 0.000000
vn 0.100000 0.000000 0.000000
vn 0.100000 0.000000 0.000000
vn 0.000000 -0.100000 0.000000
vn 0.000000 -0.100000 0.000000
vn 0.000000 -0.100000 0.000000
vn 0.000000 -0.100000 0.000000
vn 0.025882 -0.096593 0.000000
vn 0.025882 -0.096593 0.000000
vn 0.000000 -0.100000 0.000000
vn 0.000000 -0.100000 0.000000
vn -0.025882 -0.096593 0.000000
vn -0.025882 -0.096593 0.000000
vn -0.050000 -0.086603 0.000000
vn -0.050000 -0.086603 0.000000
vn -0.070711 -0.070711 0.000000
vn -0.070711 -0.070711 0.000000
vn -0.086603 -0.050000 0.000000
vn -0.086603 -0.050000 0.000000
vn -0.096593 -0.025882 0.000000
vn -0.096593 -0.025882 0.000000
vn -0.100000 -0.000000 0.000000
vn -0.100000 -0.000000 0.000000
vn -0.096593 0.025882 0.000000
vn -0.096593 0.025882 0.000000
vn -0.086603 0.050000 0.000000
vn -0.086603 0.050000 0.000000
vn -0.070711 0.070711 0.000000
vn -0.070711 0.070711 0.000000
vn -0.050000 0.086603 0.000000
vn -0.050000 0.086603 0.000000
vn -0.025882 0.096593 0.000000
vn -0.025882 0.096593 0.000000
vn -0.000000 0.100000 0.000000
vn -0.000000 0.100000 0.000000
vn 0.025882 0.096593 0.000000
vn 0.025882 0.096593 0.000000
vn 0.050000 0.086603 0.000000
vn 0.050000 0.086603 0.000000
vn 0.070711 0.070711 0.000000
vn 0.070711 0.070711 0.000000
vn 0.086603 0.050000 0.000000
vn 0.086603 0.050000 0.000000
vn 0.096593 0.025882 0.000000
vn 0.096593 0.025882 0.000000
vn 0.100000 0.000000 0.000000
vn 0.100000 0.000000 0.000000
vn 0.096593 -0.025882 0.000000
vn 0.096593 -0.025882 0.000000
vn 0.086603 -0.050000 0.000000
vn 0.086603 -0.050000 0.000000
vn 0.070711 -0.070711 0.000000
vn 0.070711 -0.070711 0.000000
vn 0.050000 -0.086603 0.000000
vn 0.050000 -0.086603 0.000000
vn 0.000000 0.000000 0.100000
vn 0.000000 0.000000 0.100000
vn 0.000000 0.000000 0.100000
vn 0.000000 0.000000 0.100000
vn 0.000000 0.000000 0.100000
vn 0.000000 0.000000 0.100000
vn 0.000000 0.000000 0.100000
vn 0.000000 0.000000 0.100000
vn 0.000000 0.000000 0.100000
vn 0.000000 0.000000 0.100000
vn 0.000000 0.000000 0.100000
vn 0.000000 0.000000 0.100000
vn 0.000000 0.000000 0.100000
vn 0.000000 0.000000 0.100000
vn 0.000000 0.000000 0.100000
vn 0.000000 0.000000 0.100000
vn 0.000000 0.000000 0.100000
vn 0.000000 0.000000 0.100000
vn 0.000000 0.000000 0.100000
vn 0.000000 0.000000 0.100000
vn 0.000000 0.000000 0.100000
vn 0.000000 0.000000 0.100000
vn 0.000000 0.000000 0.100000
vn 0.000000 0.000000 0.100000
vn 0.044721 -0.089443 0.000000
vn 0.044721 -0.089443 0.000000
vn 0.044721 -0.089443 0.000000
vn 0.044721 -0.089443 0.000000
vn 0.000000 0.000000 -0.100000
vn 0.000000 0.000000 -0.100000
vn 0.000000 0.000000 -0.100000
vn 0.000000 0.000000 -0.100000
vn 0.000000 0.000000 -0.100000
vn 0.000000 0.000000 -0.100000
vn 0.000000 0.000000 -0.100000
vn 0.000000 0.000000 -0.100000
vn -0.000000 0.100000 -0.000000
vn -0.000000 0.100000 -0.000000
vn -0.000000 0.100000 -0.000000
vn -0.000000 0.100000 -0.000000
usemtl Steel_-_Satin
f 1/1/1 2/2/2 4/3/3
f 4/3/3 2/2/2 3/4/4
f 2/5/5 5/6/6 3/7/7
f 3/7/7 5/6/6 6/8/8
f 5/9/9 7/10/10 6/11/11
f 6/11/11 7/10/10 8/12/12
f 9/13/13 10/14/14 8/15/15
f 8/15/15 10/14/14 11/16/16
f 8/15/15 11/16/16 12/17/17
f 12/17/17 13/18/18 8/15/15
f 8/15/15 13/18/18 6/19/19
f 6/19/19 13/18/18 14/20/20
f 6/19/19 14/20/20 15/21/21
f 6/19/19 15/21/21 3/22/22
f 3/22/22 15/21/21 16/23/23
f 3/22/22 16/23/23 4/24/24
f 4/24/24 16/23/23 17/25/25
f 4/24/24 17/25/25 18/26/26
f 18/26/26 19/27/27 4/24/24
f 4/24/24 19/27/27 20/28/28
f 4/24/24 20/28/28 21/29/29
f 1/30/30 22/31/31 2/32/32
f 2/32/32 22/31/31 23/33/33
f 2/34/34 23/35/35 5/36/36
f 5/36/36 23/35/35 24/37/37
f 5/38/38 24/39/39 7/40/40
f 7/40/40 24/39/39 25/41/41
f 27/42/42 28/43/43 26/44/44
f 26/44/44 28/43/43 29/45/45
f 26/46/46 29/47/47 30/48/48
f 30/48/48 29/47/47 31/49/49
f 32/50/50 33/51/51 31/52/52
f 31/52/52 33/51/51 30/53/53
f 28/54/54 34/55/55 29/56/56
f 29/56/56 34/55/55 35/57/57
f 29/58/58 35/59/59 31/60/60
f 31/60/60 35/59/59 36/61/61
f 38/62/62 84/63/63 37/64/64
f 37/64/64 84/63/63 61/65/65
f 37/64/64 61/65/65 60/66/66
f 60/66/66 61/65/65 62/67/67
f 60/66/66 62/67/67 59/68/68
f 59/68/68 62/67/67 63/69/69
f 59/68/68 63/69/69 58/70/70
f 58/70/70 63/69/69 64/71/71
f 58/70/70 64/71/71 57/72/72
f 57/72/72 64/71/71 65/73/73
f 57/72/72 65/73/73 56/74/74
f 56/74/74 65/73/73 66/75/75
f 56/74/74 66/75/75 55/76/76
f 55/76/76 66/75/75 67/77/77
f 55/76/76 67/77/77 54/78/78
f 54/78/78 67/77/77 68/79/79
f 54/78/78 68/79/79 53/80/80
f 53/80/80 68/79/79 69/81/81
f 53/80/80 69/81/81 52/82/82
f 52/82/82 69/81/81 70/83/83
f 52/82/82 70/83/83 51/84/84
f 51/84/84 70/83/83 71/85/85
f 51/84/84 71/85/85 50/86/86
f 50/86/86 71/85/85 72/87/87
f 50/86/86 72/87/87 49/88/88
f 49/88/88 72/87/87 73/89/89
f 49/90/88 73/91/89 48/92/90
f 48/92/90 73/91/89 74/93/91
f 48/92/90 74/93/91 47/94/92
f 47/94/92 74/93/91 75/95/93
f 47/94/92 75/95/93 46/96/94
f 46/96/94 75/95/93 76/97/95
f 46/96/94 76/97/95 45/98/96
f 45/98/96 76/97/95 77/99/97
f 45/98/96 77/99/97 44/100/98
f 44/100/98 77/99/97 78/101/99
f 44/100/98 78/101/99 43/102/100
f 43/102/100 78/101/99 79/103/101
f 43/102/100 79/103/101 42/104/102
f 42/104/102 79/103/101 80/105/103
f 42/104/102 80/105/103 41/106/104
f 41/106/104 80/105/103 81/107/105
f 41/106/104 81/107/105 40/108/106
f 40/108/106 81/107/105 82/109/107
f 40/108/106 82/109/107 39/110/108
f 39/110/108 82/109/107 83/111/109
f 39/110/108 83/111/109 38/62/62
f 38/62/62 83/111/109 84/63/63
f 84/112/110 74/113/111 61/114/112
f 61/114/112 74/113/111 73/115/113
f 61/114/112 73/115/113 62/116/114
f 62/116/114 73/115/113 72/117/115
f 62/116/114 72/117/115 63/118/116
f 63/118/116 72/117/115 71/119/117
f 63/118/116 71/119/117 64/120/118
f 64/120/118 71/119/117 70/121/119
f 64/120/118 70/121/119 65/122/120
f 65/122/120 70/121/119 69/123/121
f 65/122/120 69/123/121 66/124/122
f 66/124/122 69/123/121 68/125/123
f 66/124/122 68/125/123 67/126/124
f 74/113/111 84/112/110 75/127/125
f 75/127/125 84/112/110 83/128/126
f 75/127/125 83/128/126 76/129/127
f 76/129/127 83/128/126 82/130/128
f 76/129/127 82/130/128 77/131/129
f 77/131/129 82/130/128 81/132/130
f 77/131/129 81/132/130 78/133/131
f 78/133/131 81/132/130 80/134/132
f 78/133/131 80/134/132 79/135/133
f 31/136/134 36/137/135 32/138/136
f 32/138/136 36/137/135 85/139/137
f 87/140/138 86/141/139 21/142/140
f 21/142/140 86/141/139 1/143/141
f 21/142/140 1/143/141 4/144/142
f 86/145/143 87/146/144 88/147/145
f 88/147/145 87/146/144 89/148/146
f 88/149/147 89/150/148 90/151/149
f 90/151/149 89/150/148 91/152/150
f 90/153/151 91/154/152 92/155/153
f 92/155/153 91/154/152 93/156/154
f 93/157/155 9/158/156 92/159/157
f 92/159/157 9/158/156 7/160/158
f 7/160/158 9/158/156 8/161/159
f 9/162/13 93/163/160 104/164/161
f 104/164/161 93/163/160 103/165/162
f 103/165/162 93/163/160 102/166/163
f 102/166/163 93/163/160 101/167/164
f 101/167/164 93/163/160 91/168/165
f 101/167/164 91/168/165 100/169/166
f 100/169/166 91/168/165 99/170/167
f 99/170/167 91/168/165 89/171/168
f 99/170/167 89/171/168 98/172/169
f 98/172/169 89/171/168 87/173/170
f 98/172/169 87/173/170 97/174/171
f 97/174/171 87/173/170 96/175/172
f 96/175/172 87/173/170 95/176/173
f 95/176/173 87/173/170 94/177/174
f 94/177/174 87/173/170 21/178/29
f 88/179/175 105/180/176 86/181/177
f 86/181/177 105/180/176 106/182/178
f 90/183/179 107/184/180 88/185/181
f 88/185/181 107/184/180 105/186/182
f 92/187/183 108/188/184 90/189/185
f 90/189/185 108/188/184 107/190/186
f 7/191/187 25/192/188 92/193/189
f 92/193/189 25/192/188 108/194/190
f 110/195/191 120/196/192 109/197/193
f 109/197/193 120/196/192 121/198/194
f 109/197/193 121/198/194 132/199/195
f 132/199/195 121/198/194 122/200/196
f 132/199/195 122/200/196 131/201/197
f 131/201/197 122/200/196 123/202/198
f 131/201/197 123/202/198 130/203/199
f 130/203/199 123/202/198 124/204/200
f 130/203/199 124/204/200 129/205/201
f 129/205/201 124/204/200 125/206/202
f 129/205/201 125/206/202 128/207/203
f 128/207/203 125/206/202 126/208/204
f 128/207/203 126/208/204 127/209/205
f 120/196/192 110/195/191 119/210/206
f 119/210/206 110/195/191 111/211/207
f 119/210/206 111/211/207 118/212/208
f 118/212/208 111/211/207 112/213/209
f 118/212/208 112/213/209 117/214/210
f 117/214/210 112/213/209 113/215/211
f 117/214/210 113/215/211 116/216/212
f 116/216/212 113/215/211 114/217/213
f 116/216/212 114/217/213 115/218/214
f 132/219/215 94/220/216 109/221/217
f 109/221/217 94/220/216 21/222/218
f 109/221/217 21/222/218 110/223/219
f 110/223/219 21/222/218 20/224/220
f 110/223/219 20/224/220 111/225/221
f 111/225/221 20/224/220 19/226/222
f 111/225/221 19/226/222 112/227/223
f 112/227/223 19/226/222 18/228/224
f 112/227/223 18/228/224 113/229/225
f 113/229/225 18/228/224 17/230/226
f 113/229/225 17/230/226 114/231/227
f 114/231/227 17/230/226 16/232/228
f 114/231/227 16/232/228 115/233/229
f 115/233/229 16/232/228 15/234/230
f 115/233/229 15/234/230 116/235/231
f 116/235/231 15/234/230 14/236/232
f 116/235/231 14/236/232 117/237/233
f 117/237/233 14/236/232 13/238/234
f 117/237/233 13/238/234 118/239/235
f 118/239/235 13/238/234 12/240/236
f 118/239/235 12/240/236 119/241/237
f 119/241/237 12/240/236 11/242/238
f 119/241/237 11/242/238 120/243/239
f 120/243/239 11/242/238 10/244/240
f 120/243/239 10/244/240 121/245/241
f 121/245/241 10/244/240 9/246/242
f 121/247/241 9/248/242 122/249/243
f 122/249/243 9/248/242 104/250/244
f 122/249/243 104/250/244 123/251/245
f 123/251/245 104/250/244 103/252/246
f 123/251/245 103/252/246 124/253/247
f 124/253/247 103/252/246 102/254/248
f 124/253/247 102/254/248 125/255/249
f 125/255/249 102/254/248 101/256/250
f 125/255/249 101/256/250 126/257/251
f 126/257/251 101/256/250 100/258/252
f 126/257/251 100/258/252 127/259/253
f 127/259/253 100/258/252 99/260/254
f 127/259/253 99/260/254 128/261/255
f 128/261/255 99/260/254 98/262/256
f 128/261/255 98/262/256 129/263/257
f 129/263/257 98/262/256 97/264/258
f 129/263/257 97/264/258 130/265/259
f 130/265/259 97/264/258 96/266/260
f 130/265/259 96/266/260 131/267/261
f 131/267/261 96/266/260 95/268/262
f 131/267/261 95/268/262 132/219/215
f 132/219/215 95/268/262 94/220/216
f 86/269/263 106/270/264 1/271/265
f 1/271/265 106/270/264 22/272/266
f 133/273/267 28/274/268 134/275/269
f 134/275/269 28/274/268 27/276/270
f 134/277/271 135/278/272 133/279/273
f 133/279/273 135/278/272 136/280/274
f 135/281/275 137/282/276 136/283/277
f 136/283/277 137/282/276 138/284/278
f 139/285/279 138/286/280 140/287/281
f 140/287/281 138/286/280 137/288/282
f 140/289/283 33/290/284 139/291/285
f 139/291/285 33/290/284 32/292/286
f 23/293/287 22/294/288 27/295/289
f 27/295/289 22/294/288 106/296/290
f 27/295/289 106/296/290 134/297/291
f 134/297/291 106/296/290 105/298/292
f 134/297/291 105/298/292 135/299/293
f 135/299/293 105/298/292 107/300/294
f 135/299/293 107/300/294 142/301/295
f 142/301/295 107/300/294 141/302/296
f 141/302/296 107/300/294 164/303/297
f 164/303/297 107/300/294 108/304/298
f 164/303/297 108/304/298 163/305/299
f 163/305/299 108/304/298 162/306/300
f 162/306/300 108/304/298 161/307/301
f 161/307/301 108/304/298 160/308/302
f 160/308/302 108/304/298 25/309/303
f 160/308/302 25/309/303 56/310/304
f 56/310/304 25/309/303 57/311/305
f 57/311/305 25/309/303 58/312/306
f 58/312/306 25/309/303 59/313/307
f 59/313/307 25/309/303 60/314/308
f 60/314/308 25/309/303 24/315/309
f 60/314/308 24/315/309 37/316/310
f 37/316/310 24/315/309 38/317/311
f 38/317/311 24/315/309 26/318/312
f 38/317/311 26/318/312 39/319/313
f 39/319/313 26/318/312 40/320/314
f 40/320/314 26/318/312 41/321/315
f 41/321/315 26/318/312 30/322/316
f 41/321/315 30/322/316 42/323/317
f 42/323/317 30/322/316 43/324/318
f 43/324/318 30/322/316 44/325/319
f 44/325/319 30/322/316 45/326/320
f 45/326/320 30/322/316 46/327/321
f 46/327/321 30/322/316 47/328/322
f 47/328/322 30/322/316 33/329/323
f 47/328/322 33/329/323 48/330/324
f 48/330/324 33/329/323 49/331/325
f 49/331/325 33/329/323 50/332/326
f 50/332/326 33/329/323 51/333/327
f 51/333/327 33/329/323 52/334/328
f 52/334/328 33/329/323 156/335/329
f 52/334/328 156/335/329 157/336/330
f 24/315/309 23/293/287 26/318/312
f 26/318/312 23/293/287 27/295/289
f 160/308/302 56/310/304 159/337/331
f 159/337/331 56/310/304 55/338/332
f 159/337/331 55/338/332 158/339/333
f 158/339/333 55/338/332 54/340/334
f 158/339/333 54/340/334 157/336/330
f 157/336/330 54/340/334 53/341/335
f 157/336/330 53/341/335 52/334/328
f 33/329/323 140/342/336 156/335/329
f 156/335/329 140/342/336 155/343/337
f 155/343/337 140/342/336 154/344/338
f 154/344/338 140/342/336 153/345/339
f 153/345/339 140/342/336 152/346/340
f 152/346/340 140/342/336 151/347/341
f 151/347/341 140/342/336 137/348/342
f 151/347/341 137/348/342 150/349/343
f 150/349/343 137/348/342 149/350/344
f 149/350/344 137/348/342 148/351/345
f 148/351/345 137/348/342 147/352/346
f 147/352/346 137/348/342 146/353/347
f 146/353/347 137/348/342 145/354/348
f 145/354/348 137/348/342 135/299/293
f 145/354/348 135/299/293 144/355/349
f 144/355/349 135/299/293 143/356/350
f 143/356/350 135/299/293 142/301/295
f 136/357/351 165/358/352 133/359/353
f 133/359/353 165/358/352 166/360/354
f 138/361/355 167/362/356 136/363/357
f 136/363/357 167/362/356 165/364/358
f 32/365/359 85/366/360 139/367/361
f 139/367/361 85/366/360 168/368/362
f 164/369/363 192/370/364 141/371/365
f 141/371/365 192/370/364 169/372/366
f 141/371/365 169/372/366 142/373/367
f 142/373/367 169/372/366 170/374/368
f 142/373/367 170/374/368 143/375/369
f 143/375/369 170/374/368 171/376/370
f 143/375/369 171/376/370 144/377/371
f 144/377/371 171/376/370 172/378/372
f 144/377/371 172/378/372 145/379/373
f 145/379/373 172/378/372 173/380/374
f 145/379/373 173/380/374 146/381/375
f 146/381/375 173/380/374 174/382/376
f 146/381/375 174/382/376 147/383/377
f 147/383/377 174/382/376 175/384/378
f 147/383/377 175/384/378 148/385/379
f 148/385/379 175/384/378 176/386/380
f 148/385/379 176/386/380 149/387/381
f 149/387/381 176/386/380 177/388/382
f 149/387/381 177/388/382 150/389/383
f 150/389/383 177/388/382 178/390/384
f 150/389/383 178/390/384 151/391/385
f 151/391/385 178/390/384 179/392/386
f 151/391/385 179/392/386 152/393/387
f 152/393/387 179/392/386 180/394/388
f 152/393/387 180/394/388 153/395/389
f 153/395/389 180/394/388 181/396/390
f 153/397/389 181/398/390 154/399/391
f 154/399/391 181/398/390 182/400/392
f 154/399/391 182/400/392 155/401/393
f 155/401/393 182/400/392 183/402/394
f 155/401/393 183/402/394 156/403/395
f 156/403/395 183/402/394 184/404/396
f 156/403/395 184/404/396 157/405/397
f 157/405/397 184/404/396 185/406/398
f 157/405/397 185/406/398 158/407/399
f 158/407/399 185/406/398 186/408/400
f 158/407/399 186/408/400 159/409/401
f 159/409/401 186/408/400 187/410/402
f 159/409/401 187/410/402 160/411/403
f 160/411/403 187/410/402 188/412/404
f 160/411/403 188/412/404 161/413/405
f 161/413/405 188/412/404 189/414/406
f 161/413/405 189/414/406 162/415/407
f 162/415/407 189/414/406 190/416/408
f 162/415/407 190/416/408 163/417/409
f 163/417/409 190/416/408 191/418/410
f 163/417/409 191/418/410 164/369/363
f 164/369/363 191/418/410 192/370/364
f 192/419/411 182/420/412 169/421/413
f 169/421/413 182/420/412 181/422/414
f 169/421/413 181/422/414 170/423/415
f 170/423/415 181/422/414 180/424/416
f 170/423/415 180/424/416 171/425/417
f 171/425/417 180/424/416 179/426/418
f 171/425/417 179/426/418 172/427/419
f 172/427/419 179/426/418 178/428/420
f 172/427/419 178/428/420 173/429/421
f 173/429/421 178/428/420 177/430/422
f 173/429/421 177/430/422 174/431/423
f 174/431/423 177/430/422 176/432/424
f 174/431/423 176/432/424 175/433/425
f 182/420/412 192/419/411 183/434/426
f 183/434/426 192/419/411 191/435/427
f 183/434/426 191/435/427 184/436/428
f 184/436/428 191/435/427 190/437/429
f 184/436/428 190/437/429 185/438/430
f 185/438/430 190/437/429 189/439/431
f 185/438/430 189/439/431 186/440/432
f 186/440/432 189/439/431 188/441/433
f 186/440/432 188/441/433 187/442/434
f 139/443/435 168/444/436 138/445/437
f 138/445/437 168/444/436 167/446/438
f 166/447/439 165/448/440 34/449/441
f 34/449/441 165/448/440 35/450/442
f 35/450/442 165/448/440 167/451/443
f 35/450/442 167/451/443 168/452/444
f 168/452/444 85/453/445 35/450/442
f 35/450/442 85/453/445 36/454/446
f 133/455/447 166/456/448 28/457/449
f 28/457/449 166/456/448 34/458/450
# 192 vertices
# 458 texture params
# 450 normals
# 380 facets

# 1 groups
