# WaveFront *.obj file (generated by Autodesk ATF)

mtllib fc845acc-79b7-45a5-bf69-b6b7f4878679.mtl

g station_bridge

v 1.873499 -0.700000 0.500000
v 1.985810 -0.237817 0.500000
v 1.985810 0.237817 0.500000
v 1.873499 0.700000 0.500000
v -1.873499 0.700000 0.500000
v -1.985810 0.237817 0.500000
v -1.985810 -0.237817 0.500000
v -1.873499 -0.700000 0.500000
v 1.873499 -0.700000 8.500000
v -1.873499 -0.700000 8.500000
v 1.873499 0.700000 8.500000
v 1.985810 0.237817 8.500000
v 1.985810 -0.237817 8.500000
v -1.985810 -0.237817 8.500000
v -1.985810 0.237817 8.500000
v -1.873499 0.700000 8.500000
v 1.873499 -0.700000 11.000000
v 1.985810 -0.237817 11.000000
v 1.985810 0.237817 11.000000
v 1.873499 0.700000 11.000000
v -1.873499 0.700000 11.000000
v -1.985810 0.237817 11.000000
v -1.985810 -0.237817 11.000000
v -1.873499 -0.700000 11.000000
v 1.873499 -0.700000 19.000000
v -1.873499 -0.700000 19.000000
v 1.873499 0.700000 19.000000
v 1.985810 0.237817 19.000000
v 1.985810 -0.237817 19.000000
v -1.985810 -0.237817 19.000000
v -1.985810 0.237817 19.000000
v -1.873499 0.700000 19.000000
v 2.000000 0.000000 0.000000
v 1.931852 0.517638 0.000000
v 1.732051 1.000000 0.000000
v 1.414214 1.414214 0.000000
v 1.000000 1.732051 0.000000
v 0.517638 1.931852 0.000000
v -0.000000 2.000000 0.000000
v -0.517638 1.931852 0.000000
v -1.000000 1.732051 0.000000
v -1.414214 1.414214 0.000000
v -1.732051 1.000000 0.000000
v -1.931852 0.517638 0.000000
v -2.000000 -0.000000 0.000000
v -1.931852 -0.517638 0.000000
v -1.732051 -1.000000 0.000000
v -1.414214 -1.414214 0.000000
v -1.000000 -1.732051 0.000000
v -0.517638 -1.931852 0.000000
v 0.000000 -2.000000 0.000000
v 0.517638 -1.931852 0.000000
v 1.000000 -1.732051 0.000000
v 1.414214 -1.414214 0.000000
v 1.732051 -1.000000 0.000000
v 1.931852 -0.517638 0.000000
v 2.000000 0.000000 20.000000
v 1.931852 -0.517638 20.000000
v 1.732051 -1.000000 20.000000
v 1.414214 -1.414214 20.000000
v 1.000000 -1.732051 20.000000
v 0.517638 -1.931852 20.000000
v -0.000000 -2.000000 20.000000
v -0.517638 -1.931852 20.000000
v -1.000000 -1.732051 20.000000
v -1.414214 -1.414214 20.000000
v -1.732051 -1.000000 20.000000
v -1.931852 -0.517638 20.000000
v -2.000000 0.000000 20.000000
v -1.931852 0.517638 20.000000
v -1.732051 1.000000 20.000000
v -1.414214 1.414214 20.000000
v -1.000000 1.732051 20.000000
v -0.517638 1.931852 20.000000
v 0.000000 2.000000 20.000000
v 0.517638 1.931852 20.000000
v 1.000000 1.732051 20.000000
v 1.414214 1.414214 20.000000
v 1.732051 1.000000 20.000000
v 1.931852 0.517638 20.000000
vt -0.070000 0.187350 0.000000
vt -0.070000 -0.187350 0.000000
vt -0.023782 0.198581 0.000000
vt -0.023782 -0.198581 0.000000
vt 0.023782 0.198581 0.000000
vt 0.023782 -0.198581 0.000000
vt 0.070000 -0.187350 0.000000
vt 0.070000 0.187350 0.000000
vt -0.400000 -0.187350 0.000000
vt 0.400000 -0.187350 0.000000
vt -0.400000 0.187350 0.000000
vt 0.400000 0.187350 0.000000
vt -0.070000 0.187350 0.000000
vt -0.070000 -0.187350 0.000000
vt -0.023782 0.198581 0.000000
vt -0.023782 -0.198581 0.000000
vt 0.023782 -0.198581 0.000000
vt 0.023782 0.198581 0.000000
vt 0.070000 -0.187350 0.000000
vt 0.070000 0.187350 0.000000
vt -0.400000 -0.187350 0.000000
vt 0.400000 -0.187350 0.000000
vt -0.400000 0.187350 0.000000
vt 0.400000 0.187350 0.000000
vt -0.070000 0.187350 0.000000
vt -0.070000 -0.187350 0.000000
vt -0.023782 0.198581 0.000000
vt -0.023782 -0.198581 0.000000
vt 0.023782 0.198581 0.000000
vt 0.023782 -0.198581 0.000000
vt 0.070000 -0.187350 0.000000
vt 0.070000 0.187350 0.000000
vt -0.400000 -0.187350 0.000000
vt 0.400000 -0.187350 0.000000
vt -0.400000 0.187350 0.000000
vt 0.400000 0.187350 0.000000
vt -0.070000 0.187350 0.000000
vt -0.070000 -0.187350 0.000000
vt -0.023782 0.198581 0.000000
vt -0.023782 -0.198581 0.000000
vt 0.023782 -0.198581 0.000000
vt 0.023782 0.198581 0.000000
vt 0.070000 -0.187350 0.000000
vt 0.070000 0.187350 0.000000
vt -0.400000 -0.187350 0.000000
vt 0.400000 -0.187350 0.000000
vt -0.400000 0.187350 0.000000
vt 0.400000 0.187350 0.000000
vt 0.150000 -0.023838 0.000000
vt -0.100000 -0.071514 0.000000
vt 0.150000 -0.071514 0.000000
vt 1.000000 -0.104720 0.000000
vt 0.950000 -0.071514 0.000000
vt 1.000000 -0.052360 0.000000
vt 0.950000 -0.023838 0.000000
vt 1.000000 0.000000 0.000000
vt 0.950000 0.023838 0.000000
vt 1.000000 0.052360 0.000000
vt 0.950000 0.071514 0.000000
vt 1.000000 0.104720 0.000000
vt 0.150000 0.071514 0.000000
vt -0.100000 0.071514 0.000000
vt -0.100000 0.023838 0.000000
vt -0.100000 -0.023838 0.000000
vt 0.150000 0.023838 0.000000
vt 0.150000 0.604480 0.000000
vt -0.100000 0.556804 0.000000
vt 0.150000 0.556804 0.000000
vt 1.000000 0.523599 0.000000
vt 0.950000 0.556804 0.000000
vt 1.000000 0.575959 0.000000
vt 0.950000 0.604480 0.000000
vt 1.000000 0.628319 0.000000
vt 0.950000 0.652157 0.000000
vt 0.950000 -0.604480 0.000000
vt 1.000000 -0.628319 0.000000
vt 1.000000 -0.575959 0.000000
vt 0.950000 -0.556804 0.000000
vt 1.000000 -0.523599 0.000000
vt 0.150000 -0.556804 0.000000
vt -0.100000 -0.556804 0.000000
vt -0.100000 -0.604480 0.000000
vt -0.100000 0.604480 0.000000
vt 0.150000 0.652157 0.000000
vt -0.100000 0.652157 0.000000
vt 0.150000 -0.604480 0.000000
vt -0.900000 -0.023838 0.000000
vt -1.000000 -0.052360 0.000000
vt -0.900000 -0.071514 0.000000
vt -1.000000 -0.104720 0.000000
vt -1.000000 0.000000 0.000000
vt -0.900000 0.023838 0.000000
vt -1.000000 0.052360 0.000000
vt -0.900000 0.071514 0.000000
vt -1.000000 0.104720 0.000000
vt -0.900000 0.604480 0.000000
vt -1.000000 0.575959 0.000000
vt -0.900000 0.556804 0.000000
vt -1.000000 0.523599 0.000000
vt -1.000000 0.628319 0.000000
vt -1.000000 -0.628319 0.000000
vt -0.900000 -0.652157 0.000000
vt -0.900000 -0.604480 0.000000
vt -1.000000 -0.575959 0.000000
vt -0.900000 -0.556804 0.000000
vt -1.000000 -0.523599 0.000000
vt -1.000000 0.157080 0.000000
vt 1.000000 0.157080 0.000000
vt -1.000000 0.209440 0.000000
vt 1.000000 0.209440 0.000000
vt -1.000000 0.261799 0.000000
vt 1.000000 0.261799 0.000000
vt -1.000000 0.314159 0.000000
vt 1.000000 0.314159 0.000000
vt -1.000000 0.366519 0.000000
vt 1.000000 0.366519 0.000000
vt -1.000000 0.418879 0.000000
vt 1.000000 0.418879 0.000000
vt -1.000000 0.471239 0.000000
vt 1.000000 0.471239 0.000000
vt -1.000000 -0.471239 0.000000
vt 1.000000 -0.471239 0.000000
vt -1.000000 -0.418879 0.000000
vt 1.000000 -0.418879 0.000000
vt -1.000000 -0.366519 0.000000
vt 1.000000 -0.366519 0.000000
vt -1.000000 -0.314159 0.000000
vt 1.000000 -0.314159 0.000000
vt -1.000000 -0.261799 0.000000
vt 1.000000 -0.261799 0.000000
vt -1.000000 -0.209440 0.000000
vt 1.000000 -0.209440 0.000000
vt -1.000000 -0.157080 0.000000
vt 1.000000 -0.157080 0.000000
vt -0.193185 -0.051764 0.000000
vt 0.193185 -0.051764 0.000000
vt -0.200000 0.000000 0.000000
vt 0.200000 -0.000000 0.000000
vt -0.193185 0.051764 0.000000
vt 0.193185 0.051764 0.000000
vt -0.173205 0.100000 0.000000
vt 0.173205 0.100000 0.000000
vt -0.141421 0.141421 0.000000
vt 0.141421 0.141421 0.000000
vt -0.100000 0.173205 0.000000
vt 0.100000 0.173205 0.000000
vt -0.051764 0.193185 0.000000
vt 0.051764 0.193185 0.000000
vt 0.000000 0.200000 0.000000
vt 0.173205 -0.100000 0.000000
vt -0.173205 -0.100000 0.000000
vt 0.141421 -0.141421 0.000000
vt -0.141421 -0.141421 0.000000
vt 0.100000 -0.173205 0.000000
vt -0.100000 -0.173205 0.000000
vt 0.051764 -0.193185 0.000000
vt -0.051764 -0.193185 0.000000
vt -0.000000 -0.200000 0.000000
vt 0.193185 0.051764 0.000000
vt -0.193185 0.051764 0.000000
vt 0.200000 0.000000 0.000000
vt -0.200000 0.000000 0.000000
vt 0.193185 -0.051764 0.000000
vt -0.193185 -0.051764 0.000000
vt 0.173205 -0.100000 0.000000
vt -0.173205 -0.100000 0.000000
vt 0.141421 -0.141421 0.000000
vt -0.141421 -0.141421 0.000000
vt 0.100000 -0.173205 0.000000
vt -0.100000 -0.173205 0.000000
vt 0.051764 -0.193185 0.000000
vt -0.051764 -0.193185 0.000000
vt -0.000000 -0.200000 0.000000
vt -0.173205 0.100000 0.000000
vt 0.173205 0.100000 0.000000
vt -0.141421 0.141421 0.000000
vt 0.141421 0.141421 0.000000
vt -0.100000 0.173205 0.000000
vt 0.100000 0.173205 0.000000
vt -0.051764 0.193185 0.000000
vt 0.051764 0.193185 0.000000
vt 0.000000 0.200000 0.000000
vn 0.000000 0.000000 0.100000
vn 0.000000 0.000000 0.100000
vn 0.000000 0.000000 0.100000
vn 0.000000 0.000000 0.100000
vn 0.000000 0.000000 0.100000
vn 0.000000 0.000000 0.100000
vn 0.000000 0.000000 0.100000
vn 0.000000 0.000000 0.100000
vn 0.000000 0.100000 0.000000
vn 0.000000 0.100000 0.000000
vn 0.000000 0.100000 0.000000
vn 0.000000 0.100000 0.000000
vn 0.000000 0.000000 -0.100000
vn 0.000000 0.000000 -0.100000
vn 0.000000 0.000000 -0.100000
vn 0.000000 0.000000 -0.100000
vn 0.000000 0.000000 -0.100000
vn 0.000000 0.000000 -0.100000
vn 0.000000 0.000000 -0.100000
vn 0.000000 0.000000 -0.100000
vn 0.000000 -0.100000 0.000000
vn 0.000000 -0.100000 0.000000
vn 0.000000 -0.100000 0.000000
vn 0.000000 -0.100000 0.000000
vn 0.000000 0.000000 0.100000
vn 0.000000 0.000000 0.100000
vn 0.000000 0.000000 0.100000
vn 0.000000 0.000000 0.100000
vn 0.000000 0.000000 0.100000
vn 0.000000 0.000000 0.100000
vn 0.000000 0.000000 0.100000
vn 0.000000 0.000000 0.100000
vn 0.000000 0.100000 0.000000
vn 0.000000 0.100000 0.000000
vn 0.000000 0.100000 0.000000
vn 0.000000 0.100000 0.000000
vn 0.000000 0.000000 -0.100000
vn 0.000000 0.000000 -0.100000
vn 0.000000 0.000000 -0.100000
vn 0.000000 0.000000 -0.100000
vn 0.000000 0.000000 -0.100000
vn 0.000000 0.000000 -0.100000
vn 0.000000 0.000000 -0.100000
vn 0.000000 0.000000 -0.100000
vn 0.000000 -0.100000 0.000000
vn 0.000000 -0.100000 0.000000
vn 0.000000 -0.100000 0.000000
vn 0.000000 -0.100000 0.000000
vn 0.099291 -0.011891 0.000000
vn 0.093675 -0.035000 0.000000
vn 0.093675 -0.035000 0.000000
vn 0.086603 -0.050000 0.000000
vn 0.093675 -0.035000 0.000000
vn 0.096593 -0.025882 0.000000
vn 0.099291 -0.011891 0.000000
vn 0.100000 0.000000 0.000000
vn 0.099291 0.011891 0.000000
vn 0.096593 0.025882 0.000000
vn 0.093675 0.035000 0.000000
vn 0.086603 0.050000 0.000000
vn 0.093675 0.035000 0.000000
vn 0.093675 0.035000 0.000000
vn 0.099291 0.011891 0.000000
vn 0.099291 -0.011891 0.000000
vn 0.099291 0.011891 0.000000
vn -0.099291 0.011891 -0.000000
vn -0.093675 0.035000 -0.000000
vn -0.093675 0.035000 -0.000000
vn -0.086603 0.050000 -0.000000
vn -0.093675 0.035000 -0.000000
vn -0.096593 0.025882 -0.000000
vn -0.099291 0.011891 -0.000000
vn -0.100000 0.000000 -0.000000
vn -0.099291 -0.011891 0.000000
vn -0.096593 -0.025882 0.000000
vn -0.093675 -0.035000 0.000000
vn -0.086603 -0.050000 0.000000
vn -0.093675 -0.035000 0.000000
vn -0.093675 -0.035000 0.000000
vn -0.099291 -0.011891 0.000000
vn -0.099291 0.011891 -0.000000
vn -0.099291 -0.011891 0.000000
vn 0.099291 -0.011891 0.000000
vn 0.096593 -0.025882 0.000000
vn 0.093675 -0.035000 0.000000
vn 0.086603 -0.050000 0.000000
vn 0.100000 0.000000 0.000000
vn 0.099291 0.011891 0.000000
vn 0.096593 0.025882 0.000000
vn 0.093675 0.035000 0.000000
vn 0.086603 0.050000 0.000000
vn -0.099291 0.011891 -0.000000
vn -0.096593 0.025882 -0.000000
vn -0.093675 0.035000 -0.000000
vn -0.086603 0.050000 -0.000000
vn -0.100000 0.000000 -0.000000
vn -0.099291 -0.011891 0.000000
vn -0.096593 -0.025882 0.000000
vn -0.093675 -0.035000 0.000000
vn -0.086603 -0.050000 0.000000
vn 0.070711 0.070711 0.000000
vn 0.070711 0.070711 0.000000
vn 0.050000 0.086603 0.000000
vn 0.050000 0.086603 0.000000
vn 0.025882 0.096593 0.000000
vn 0.025882 0.096593 0.000000
vn 0.000000 0.100000 0.000000
vn -0.000000 0.100000 -0.000000
vn -0.025882 0.096593 -0.000000
vn -0.025882 0.096593 -0.000000
vn -0.050000 0.086603 -0.000000
vn -0.050000 0.086603 -0.000000
vn -0.070711 0.070711 -0.000000
vn -0.070711 0.070711 -0.000000
vn -0.070711 -0.070711 0.000000
vn -0.070711 -0.070711 0.000000
vn -0.050000 -0.086603 0.000000
vn -0.050000 -0.086603 0.000000
vn -0.025882 -0.096593 0.000000
vn -0.025882 -0.096593 0.000000
vn -0.000000 -0.100000 0.000000
vn 0.000000 -0.100000 0.000000
vn 0.025882 -0.096593 0.000000
vn 0.025882 -0.096593 0.000000
vn 0.050000 -0.086603 0.000000
vn 0.050000 -0.086603 0.000000
vn 0.070711 -0.070711 0.000000
vn 0.070711 -0.070711 0.000000
vn 0.000000 0.000000 -0.100000
vn 0.000000 0.000000 -0.100000
vn 0.000000 0.000000 -0.100000
vn 0.000000 0.000000 -0.100000
vn 0.000000 0.000000 -0.100000
vn 0.000000 0.000000 -0.100000
vn 0.000000 0.000000 -0.100000
vn 0.000000 0.000000 -0.100000
vn 0.000000 0.000000 -0.100000
vn 0.000000 0.000000 -0.100000
vn 0.000000 0.000000 -0.100000
vn 0.000000 0.000000 -0.100000
vn 0.000000 0.000000 -0.100000
vn 0.000000 0.000000 -0.100000
vn 0.000000 0.000000 -0.100000
vn 0.000000 0.000000 -0.100000
vn 0.000000 0.000000 -0.100000
vn 0.000000 0.000000 -0.100000
vn 0.000000 0.000000 -0.100000
vn 0.000000 0.000000 -0.100000
vn 0.000000 0.000000 -0.100000
vn 0.000000 0.000000 -0.100000
vn 0.000000 0.000000 -0.100000
vn 0.000000 0.000000 -0.100000
vn 0.000000 0.000000 0.100000
vn 0.000000 0.000000 0.100000
vn 0.000000 0.000000 0.100000
vn 0.000000 0.000000 0.100000
vn 0.000000 0.000000 0.100000
vn 0.000000 0.000000 0.100000
vn 0.000000 0.000000 0.100000
vn 0.000000 0.000000 0.100000
vn 0.000000 0.000000 0.100000
vn 0.000000 0.000000 0.100000
vn 0.000000 0.000000 0.100000
vn 0.000000 0.000000 0.100000
vn 0.000000 0.000000 0.100000
vn 0.000000 0.000000 0.100000
vn 0.000000 0.000000 0.100000
vn 0.000000 0.000000 0.100000
vn 0.000000 0.000000 0.100000
vn 0.000000 0.000000 0.100000
vn 0.000000 0.000000 0.100000
vn 0.000000 0.000000 0.100000
vn 0.000000 0.000000 0.100000
vn 0.000000 0.000000 0.100000
vn 0.000000 0.000000 0.100000
vn 0.000000 0.000000 0.100000
usemtl Steel_-_Satin
f 8/1/1 1/2/2 7/3/3
f 7/3/3 1/2/2 2/4/4
f 7/3/3 2/4/4 6/5/5
f 6/5/5 2/4/4 3/6/6
f 6/5/5 3/6/6 4/7/7
f 4/7/7 5/8/8 6/5/5
f 9/9/9 1/10/10 10/11/11
f 10/11/11 1/10/10 8/12/12
f 16/13/13 11/14/14 15/15/15
f 15/15/15 11/14/14 12/16/16
f 15/15/15 12/16/16 13/17/17
f 15/15/15 13/17/17 14/18/18
f 14/18/18 13/17/17 9/19/19
f 14/18/18 9/19/19 10/20/20
f 4/21/21 11/22/22 5/23/23
f 5/23/23 11/22/22 16/24/24
f 24/25/25 17/26/26 23/27/27
f 23/27/27 17/26/26 18/28/28
f 23/27/27 18/28/28 22/29/29
f 22/29/29 18/28/28 19/30/30
f 22/29/29 19/30/30 20/31/31
f 20/31/31 21/32/32 22/29/29
f 25/33/33 17/34/34 26/35/35
f 26/35/35 17/34/34 24/36/36
f 32/37/37 27/38/38 31/39/39
f 31/39/39 27/38/38 28/40/40
f 31/39/39 28/40/40 29/41/41
f 31/39/39 29/41/41 30/42/42
f 30/42/42 29/41/41 25/43/43
f 30/42/42 25/43/43 26/44/44
f 20/45/45 27/46/46 21/47/47
f 21/47/47 27/46/46 32/48/48
f 13/49/49 17/50/50 9/51/51
f 9/51/51 17/50/50 55/52/52
f 9/51/51 55/52/52 1/53/53
f 1/53/53 55/52/52 56/54/54
f 1/53/53 56/54/54 2/55/55
f 2/55/55 56/54/54 33/56/56
f 2/55/55 33/56/56 3/57/57
f 3/57/57 33/56/56 34/58/58
f 3/57/57 34/58/58 4/59/59
f 4/59/59 34/58/58 35/60/60
f 4/59/59 35/60/60 11/61/61
f 11/61/61 35/60/60 20/62/62
f 11/61/61 20/62/62 19/63/63
f 17/50/50 13/49/49 18/64/64
f 18/64/64 13/49/49 12/65/65
f 18/64/64 12/65/65 19/63/63
f 19/63/63 12/65/65 11/61/61
f 15/66/66 21/67/67 16/68/68
f 16/68/68 21/67/67 43/69/69
f 16/68/68 43/69/69 5/70/70
f 5/70/70 43/69/69 44/71/71
f 5/70/70 44/71/71 6/72/72
f 6/72/72 44/71/71 45/73/73
f 6/72/72 45/73/73 7/74/74
f 7/75/74 45/76/73 46/77/75
f 7/75/74 46/77/75 8/78/76
f 8/78/76 46/77/75 47/79/77
f 8/78/76 47/79/77 10/80/78
f 10/80/78 47/79/77 24/81/79
f 10/80/78 24/81/79 23/82/80
f 21/67/67 15/66/66 22/83/81
f 22/83/81 15/66/66 14/84/82
f 22/83/81 14/84/82 23/85/80
f 23/82/80 14/86/82 10/80/78
f 29/87/83 58/88/84 25/89/85
f 25/89/85 58/88/84 59/90/86
f 25/89/85 59/90/86 17/50/50
f 17/50/50 59/90/86 55/52/52
f 58/88/84 29/87/83 57/91/87
f 57/91/87 29/87/83 28/92/88
f 57/91/87 28/92/88 80/93/89
f 80/93/89 28/92/88 27/94/90
f 80/93/89 27/94/90 79/95/91
f 79/95/91 27/94/90 20/62/62
f 79/95/91 20/62/62 35/60/60
f 31/96/92 70/97/93 32/98/94
f 32/98/94 70/97/93 71/99/95
f 32/98/94 71/99/95 21/67/67
f 21/67/67 71/99/95 43/69/69
f 70/97/93 31/96/92 69/100/96
f 69/101/96 31/102/92 30/103/97
f 69/101/96 30/103/97 68/104/98
f 68/104/98 30/103/97 26/105/99
f 68/104/98 26/105/99 67/106/100
f 67/106/100 26/105/99 24/81/79
f 67/106/100 24/81/79 47/79/77
f 79/95/91 35/60/60 78/107/101
f 78/107/101 35/60/60 36/108/102
f 78/107/101 36/108/102 77/109/103
f 77/109/103 36/108/102 37/110/104
f 77/109/103 37/110/104 76/111/105
f 76/111/105 37/110/104 38/112/106
f 76/111/105 38/112/106 75/113/107
f 75/113/107 38/112/106 39/114/108
f 75/113/107 39/114/108 74/115/109
f 74/115/109 39/114/108 40/116/110
f 74/115/109 40/116/110 73/117/111
f 73/117/111 40/116/110 41/118/112
f 73/117/111 41/118/112 72/119/113
f 72/119/113 41/118/112 42/120/114
f 72/119/113 42/120/114 71/99/95
f 71/99/95 42/120/114 43/69/69
f 67/106/100 47/79/77 66/121/115
f 66/121/115 47/79/77 48/122/116
f 66/121/115 48/122/116 65/123/117
f 65/123/117 48/122/116 49/124/118
f 65/123/117 49/124/118 64/125/119
f 64/125/119 49/124/118 50/126/120
f 64/125/119 50/126/120 63/127/121
f 63/127/121 50/126/120 51/128/122
f 63/127/121 51/128/122 62/129/123
f 62/129/123 51/128/122 52/130/124
f 62/129/123 52/130/124 61/131/125
f 61/131/125 52/130/124 53/132/126
f 61/131/125 53/132/126 60/133/127
f 60/133/127 53/132/126 54/134/128
f 60/133/127 54/134/128 59/90/86
f 59/90/86 54/134/128 55/52/52
f 56/135/129 46/136/130 33/137/131
f 33/137/131 46/136/130 45/138/132
f 33/137/131 45/138/132 34/139/133
f 34/139/133 45/138/132 44/140/134
f 34/139/133 44/140/134 35/141/135
f 35/141/135 44/140/134 43/142/136
f 35/141/135 43/142/136 36/143/137
f 36/143/137 43/142/136 42/144/138
f 36/143/137 42/144/138 37/145/139
f 37/145/139 42/144/138 41/146/140
f 37/145/139 41/146/140 38/147/141
f 38/147/141 41/146/140 40/148/142
f 38/147/141 40/148/142 39/149/143
f 46/136/130 56/135/129 47/150/144
f 47/150/144 56/135/129 55/151/145
f 47/150/144 55/151/145 48/152/146
f 48/152/146 55/151/145 54/153/147
f 48/152/146 54/153/147 49/154/148
f 49/154/148 54/153/147 53/155/149
f 49/154/148 53/155/149 50/156/150
f 50/156/150 53/155/149 52/157/151
f 50/156/150 52/157/151 51/158/152
f 80/159/153 70/160/154 57/161/155
f 57/161/155 70/160/154 69/162/156
f 57/161/155 69/162/156 58/163/157
f 58/163/157 69/162/156 68/164/158
f 58/163/157 68/164/158 59/165/159
f 59/165/159 68/164/158 67/166/160
f 59/165/159 67/166/160 60/167/161
f 60/167/161 67/166/160 66/168/162
f 60/167/161 66/168/162 61/169/163
f 61/169/163 66/168/162 65/170/164
f 61/169/163 65/170/164 62/171/165
f 62/171/165 65/170/164 64/172/166
f 62/171/165 64/172/166 63/173/167
f 70/160/154 80/159/153 71/174/168
f 71/174/168 80/159/153 79/175/169
f 71/174/168 79/175/169 72/176/170
f 72/176/170 79/175/169 78/177/171
f 72/176/170 78/177/171 73/178/172
f 73/178/172 78/177/171 77/179/173
f 73/178/172 77/179/173 74/180/174
f 74/180/174 77/179/173 76/181/175
f 74/180/174 76/181/175 75/182/176
# 80 vertices
# 182 texture params
# 176 normals
# 164 facets

# 1 groups
