[gd_scene load_steps=3 format=2]

[sub_resource type="CubeMesh" id=1]
size = Vector3( 0.1, 0.1, 1 )

[sub_resource type="SpatialMaterial" id=2]
albedo_color = Color( 0, 0, 0, 1 )

[node name="CableSegment" type="MeshInstance"]
mesh = SubResource( 1 )
material/0 = SubResource( 2 )
