[gd_scene load_steps=5 format=2]

[ext_resource path="res://Assets/OttersModels/Texture/Sprite-0001.png" type="Texture" id=1]

[sub_resource type="CylinderMesh" id=29]
height = 40.0

[sub_resource type="ArrayMesh" id=27]
resource_name = "SpotLight_Cylinder012"
surfaces/0 = {
"aabb": AABB( -8.76512, -26.8018, -8.76512, 17.5302, 27.3607, 17.5302 ),
"array_data": PoolByteArray( 245, 233, 187, 178, 1, 106, 214, 193, 240, 61, 12, 193, 97, 127, 120, 66, 0, 0, 27, 33, 245, 233, 187, 178, 1, 106, 214, 193, 240, 61, 12, 193, 97, 127, 121, 60, 252, 59, 27, 33, 0, 0, 0, 0, 215, 24, 15, 63, 215, 24, 15, 191, 97, 127, 120, 66, 82, 55, 255, 59, 0, 0, 0, 0, 215, 24, 15, 63, 215, 24, 15, 191, 97, 127, 121, 60, 43, 56, 255, 59, 61, 89, 45, 64, 1, 106, 214, 193, 197, 96, 5, 193, 102, 101, 95, 63, 246, 40, 27, 33, 174, 224, 48, 62, 215, 24, 15, 63, 231, 23, 8, 191, 102, 101, 95, 63, 92, 55, 255, 59, 66, 221, 164, 64, 1, 106, 214, 193, 142, 234, 226, 192, 104, 83, 73, 63, 50, 45, 27, 33, 124, 56, 168, 62, 215, 24, 15, 63, 46, 137, 231, 190, 104, 83, 73, 63, 103, 55, 255, 59, 142, 234, 226, 64, 1, 106, 214, 193, 66, 221, 164, 192, 104, 66, 53, 63, 15, 48, 27, 33, 46, 137, 231, 62, 215, 24, 15, 63, 124, 56, 168, 190, 104, 66, 53, 63, 115, 55, 255, 59, 197, 96, 5, 65, 1, 106, 214, 193, 62, 89, 45, 192, 102, 49, 31, 63, 158, 49, 27, 33, 231, 23, 8, 63, 215, 24, 15, 63, 173, 224, 48, 190, 102, 49, 31, 63, 128, 55, 255, 59, 240, 61, 12, 65, 1, 106, 214, 193, 202, 43, 137, 49, 97, 29, 0, 63, 65, 51, 27, 33, 215, 24, 15, 63, 215, 24, 15, 63, 200, 225, 209, 50, 97, 29, 0, 63, 141, 55, 255, 59, 197, 96, 5, 65, 1, 106, 214, 193, 60, 89, 45, 64, 77, 24, 225, 63, 123, 52, 27, 33, 230, 23, 8, 63, 215, 24, 15, 63, 176, 224, 48, 62, 77, 24, 225, 63, 155, 55, 255, 59, 142, 234, 226, 64, 1, 106, 214, 193, 65, 221, 164, 64, 60, 22, 203, 63, 92, 53, 27, 33, 46, 137, 231, 62, 215, 24, 15, 63, 123, 56, 168, 62, 60, 22, 203, 63, 169, 55, 255, 59, 65, 221, 164, 64, 1, 106, 214, 193, 143, 234, 226, 64, 43, 22, 183, 63, 66, 54, 27, 33, 123, 56, 168, 62, 215, 24, 15, 63, 47, 137, 231, 62, 43, 22, 183, 63, 184, 55, 255, 59, 62, 89, 45, 64, 1, 106, 214, 193, 197, 96, 5, 65, 25, 24, 161, 63, 44, 55, 27, 33, 176, 224, 48, 62, 215, 24, 15, 63, 230, 23, 8, 63, 25, 24, 161, 63, 199, 55, 255, 59, 17, 145, 83, 181, 1, 106, 214, 193, 240, 61, 12, 65, 0, 29, 130, 63, 11, 56, 27, 33, 200, 225, 81, 179, 215, 24, 15, 63, 215, 24, 15, 63, 0, 29, 130, 63, 214, 55, 255, 59, 60, 89, 45, 192, 1, 106, 214, 193, 197, 96, 5, 65, 231, 24, 130, 79, 128, 56, 27, 33, 173, 224, 48, 190, 215, 24, 15, 63, 231, 23, 8, 63, 231, 24, 130, 79, 229, 55, 255, 59, 68, 221, 164, 192, 1, 106, 214, 193, 141, 234, 226, 64, 213, 22, 130, 36, 244, 56, 27, 33, 127, 56, 168, 190, 215, 24, 15, 63, 45, 137, 231, 62, 213, 22, 130, 36, 244, 55, 255, 59, 145, 234, 226, 192, 1, 106, 214, 193, 62, 221, 164, 64, 196, 22, 130, 100, 102, 57, 27, 33, 48, 137, 231, 190, 215, 24, 15, 63, 121, 56, 168, 62, 196, 22, 130, 100, 1, 56, 255, 59, 197, 96, 5, 193, 1, 106, 214, 193, 62, 89, 45, 64, 179, 24, 130, 15, 213, 57, 27, 33, 230, 23, 8, 191, 215, 24, 15, 63, 178, 224, 48, 62, 179, 24, 130, 15, 8, 56, 255, 59, 240, 61, 12, 193, 1, 106, 214, 193, 81, 213, 1, 181, 159, 29, 126, 127, 63, 58, 27, 33, 215, 24, 15, 191, 215, 24, 15, 63, 249, 7, 229, 177, 159, 29, 130, 1, 15, 56, 255, 59, 197, 96, 5, 193, 1, 106, 214, 193, 66, 89, 45, 192, 154, 49, 126, 111, 165, 58, 27, 33, 230, 23, 8, 191, 215, 24, 15, 63, 179, 224, 48, 190, 154, 49, 126, 111, 21, 56, 255, 59, 145, 234, 226, 192, 1, 106, 214, 193, 62, 221, 164, 192, 152, 66, 126, 26, 5, 59, 27, 33, 48, 137, 231, 190, 215, 24, 15, 63, 121, 56, 168, 190, 152, 66, 126, 26, 27, 56, 255, 59, 67, 221, 164, 192, 1, 106, 214, 193, 141, 234, 226, 192, 152, 83, 126, 90, 95, 59, 27, 33, 125, 56, 168, 190, 215, 24, 15, 63, 45, 137, 231, 190, 152, 83, 126, 90, 33, 56, 255, 59, 60, 89, 45, 192, 1, 106, 214, 193, 197, 96, 5, 193, 154, 101, 126, 47, 178, 59, 27, 33, 172, 224, 48, 190, 215, 24, 15, 63, 231, 23, 8, 191, 154, 101, 126, 47, 38, 56, 255, 59 ),
"array_index_data": PoolByteArray( 0, 0, 5, 0, 2, 0, 0, 0, 4, 0, 5, 0, 4, 0, 7, 0, 5, 0, 4, 0, 6, 0, 7, 0, 6, 0, 9, 0, 7, 0, 6, 0, 8, 0, 9, 0, 8, 0, 11, 0, 9, 0, 8, 0, 10, 0, 11, 0, 10, 0, 13, 0, 11, 0, 10, 0, 12, 0, 13, 0, 12, 0, 15, 0, 13, 0, 12, 0, 14, 0, 15, 0, 14, 0, 17, 0, 15, 0, 14, 0, 16, 0, 17, 0, 16, 0, 19, 0, 17, 0, 16, 0, 18, 0, 19, 0, 18, 0, 21, 0, 19, 0, 18, 0, 20, 0, 21, 0, 20, 0, 23, 0, 21, 0, 20, 0, 22, 0, 23, 0, 22, 0, 25, 0, 23, 0, 22, 0, 24, 0, 25, 0, 24, 0, 27, 0, 25, 0, 24, 0, 26, 0, 27, 0, 26, 0, 29, 0, 27, 0, 26, 0, 28, 0, 29, 0, 28, 0, 31, 0, 29, 0, 28, 0, 30, 0, 31, 0, 30, 0, 33, 0, 31, 0, 30, 0, 32, 0, 33, 0, 32, 0, 35, 0, 33, 0, 32, 0, 34, 0, 35, 0, 34, 0, 37, 0, 35, 0, 34, 0, 36, 0, 37, 0, 36, 0, 39, 0, 37, 0, 36, 0, 38, 0, 39, 0, 38, 0, 41, 0, 39, 0, 38, 0, 40, 0, 41, 0, 40, 0, 3, 0, 41, 0, 40, 0, 1, 0, 3, 0 ),
"blend_shape_data": [  ],
"format": 2194711,
"index_count": 120,
"primitive": 4,
"skeleton_aabb": [  ],
"vertex_count": 42
}

[sub_resource type="SpatialMaterial" id=28]
flags_transparent = true
flags_unshaded = true
params_blend_mode = 1
params_cull_mode = 2
albedo_color = Color( 1, 1, 1, 0.0392157 )
albedo_texture = ExtResource( 1 )

[node name="Growlight" type="Spatial"]

[node name="MeshInstance" type="MeshInstance" parent="."]
transform = Transform( 1, 0, 0, 0, 1, 1.06581e-14, 0, -1.06581e-14, 1, 0, 18.9999, -1.06581e-13 )
mesh = SubResource( 29 )
material/0 = null

[node name="SpotLight0" type="SpotLight" parent="MeshInstance"]
transform = Transform( -0.5, 3.78552e-08, -0.866025, -0.866025, -2.18557e-08, 0.5, 3.90799e-14, 1, 4.37114e-08, 0, 18.6764, 0.0001225 )
light_color = Color( 1, 1, 0.376471, 1 )
light_energy = 0.5
light_indirect_energy = 0.5
spot_range = 154.141

[node name="Cylinder011" type="MeshInstance" parent="MeshInstance/SpotLight0"]
transform = Transform( -3, 1.50996e-07, 1.98007e-14, 0, -4.37114e-08, 3, 4.52987e-07, 1, 1.31134e-07, -9.6087e-08, 2.7816e-08, -0.636355 )
mesh = SubResource( 27 )
material/0 = SubResource( 28 )

[node name="SpotLight1" type="SpotLight" parent="MeshInstance"]
transform = Transform( -0.5, 3.78552e-08, 0.866026, 0.866026, -2.18557e-08, 0.5, 3.78552e-08, 1, -2.18557e-08, 0, 18.6764, 0.0001225 )
light_color = Color( 1, 1, 0.376471, 1 )
light_energy = 0.5
light_indirect_energy = 0.5
spot_range = 154.141

[node name="Cylinder011" type="MeshInstance" parent="MeshInstance/SpotLight1"]
transform = Transform( -3, 1.50996e-07, 1.98007e-14, 0, -4.37114e-08, 3, 4.52987e-07, 1, 1.31134e-07, -9.6087e-08, 2.7816e-08, -0.636355 )
mesh = SubResource( 27 )
material/0 = SubResource( 28 )

[node name="SpotLight2" type="SpotLight" parent="MeshInstance"]
transform = Transform( -1, -2.61532e-07, 1.94707e-07, 3.23847e-07, -0.866025, 0.5, 3.78552e-08, 0.5, 0.866025, 0, 18.6764, 0.0001225 )
light_color = Color( 1, 1, 0.376471, 1 )
light_energy = 0.5
light_indirect_energy = 0.5
spot_range = 154.141

[node name="Cylinder011" type="MeshInstance" parent="MeshInstance/SpotLight2"]
transform = Transform( -3, 1.50996e-07, 1.98007e-14, 0, -4.37114e-08, 3, 4.52987e-07, 1, 1.31134e-07, -9.6087e-08, 2.7816e-08, -0.636355 )
mesh = SubResource( 27 )
material/0 = SubResource( 28 )

[node name="SpotLight3" type="SpotLight" parent="MeshInstance"]
transform = Transform( -1, 2.06477e-07, 7.5498e-08, 2.16563e-07, 0.866025, 0.5, 3.78552e-08, 0.5, -0.866025, 0, 18.6764, 0.0001225 )
light_color = Color( 1, 1, 0.376471, 1 )
light_energy = 0.5
light_indirect_energy = 0.5
spot_range = 154.141

[node name="Cylinder011" type="MeshInstance" parent="MeshInstance/SpotLight3"]
transform = Transform( -3, 1.50996e-07, 1.98007e-14, 0, -4.37114e-08, 3, 4.52987e-07, 1, 1.31134e-07, -9.6087e-08, 2.7816e-08, -0.636355 )
mesh = SubResource( 27 )
material/0 = SubResource( 28 )
