[gd_scene load_steps=5 format=2]

[ext_resource path="res://Assets/Models/station_bridge.obj" type="ArrayMesh" id=1]
[ext_resource path="res://Assets/OttersModels/GlowBlue.material" type="Material" id=2]
[ext_resource path="res://Assets/OttersModels/MetalScratch.material" type="Material" id=3]

[sub_resource type="CylinderMesh" id=1]
top_radius = 1.5
bottom_radius = 1.5
height = 20.0

[node name="StationBridge" type="Spatial"]

[node name="MeshInstance" type="MeshInstance" parent="."]
transform = Transform( 1, 0, 0, 0, 1, 1.06581e-14, 0, -1.06581e-14, 1, 0, 1.06581e-13, 0 )
material_override = ExtResource( 3 )
mesh = ExtResource( 1 )

[node name="MeshInstance2" type="MeshInstance" parent="MeshInstance"]
transform = Transform( 1, 0, 0, 0, -4.37114e-08, -1, 0, 1, -4.37114e-08, 0, 0, 10 )
mesh = SubResource( 1 )
skeleton = NodePath("../..")
material/0 = ExtResource( 2 )
