[gd_resource type="Resource" load_steps=4 format=2]

[ext_resource path="res://Resources/Faction.cs" type="Script" id=1]
[ext_resource path="res://Resources/Simulation/Commodities/commodity_glitterweed.tres" type="Resource" id=2]
[ext_resource path="res://Resources/Simulation/Commodities/commodity_salts.tres" type="Resource" id=3]

[resource]
script = ExtResource( 1 )
Name = "Nerva"
Description = "Nerve is a fairly minor station in Hudson, but no less important due to it's position. It anchors key trading routes to Scandav."
Color = Color( 0, 0, 1, 1 )
TracksCrimes = true
Contraband = [ ExtResource( 2 ), ExtResource( 3 ) ]
SmugglingMissionCommodities = [  ]
MinimumFactionStandingForTrade = 20.0
