[gd_scene load_steps=6 format=2]

[ext_resource path="res://Textures/ui_icons/ui_contact_unknown.png" type="Texture" id=1]
[ext_resource path="res://Scenes/UI/ContactListItem.cs" type="Script" id=2]
[ext_resource path="res://Textures/ui_icons/ui_contact_waypoint.png" type="Texture" id=3]
[ext_resource path="res://Textures/ui_icons/ui_contact_talking.png" type="Texture" id=4]
[ext_resource path="res://Resources/UI/greybutton.tres" type="Theme" id=5]

[node name="ContactListItem" type="Button"]
margin_right = 197.0
margin_bottom = 22.0
rect_clip_content = true
focus_mode = 0
theme = ExtResource( 5 )
custom_colors/font_color_hover = Color( 1, 1, 0.501961, 1 )
custom_colors/font_color_pressed = Color( 1, 1, 0, 1 )
toggle_mode = true
enabled_focus_mode = 0
text = "Unknown Contact Super Lon"
icon = ExtResource( 1 )
flat = true
clip_text = true
align = 0
script = ExtResource( 2 )
DefaultIcon = ExtResource( 1 )
WaypointIcon = ExtResource( 3 )
SpeakingIcon = ExtResource( 4 )

[connection signal="pressed" from="." to="." method="OnPressed"]
