[gd_scene load_steps=3 format=2]

[ext_resource path="res://Scenes/UI/DiverVendorOptionButton.cs" type="Script" id=1]
[ext_resource path="res://Resources/UI/greentheme.tres" type="Theme" id=2]

[node name="DiverVendorOptionButton" type="Button"]
margin_right = 150.0
margin_bottom = 20.0
focus_mode = 0
theme = ExtResource( 2 )
toggle_mode = true
shortcut_in_tooltip = false
enabled_focus_mode = 0
text = "Salvage Diver"
script = ExtResource( 1 )
__meta__ = {
"_edit_use_anchors_": false
}

[connection signal="pressed" from="." to="." method="OnPressed"]
