[gd_scene load_steps=3 format=2]

[ext_resource path="res://Textures/map_icons/map_sonardot.png" type="Texture" id=1]
[ext_resource path="res://Scenes/UI/MapPathDot.cs" type="Script" id=2]

[node name="MapSonarDot" type="TextureRect"]
modulate = Color( 0, 1, 0, 1 )
margin_left = -8.0
margin_top = -8.0
margin_right = 8.0
margin_bottom = 8.0
rect_pivot_offset = Vector2( 8, 8 )
texture = ExtResource( 1 )
script = ExtResource( 2 )
__meta__ = {
"_edit_use_anchors_": false
}
TimeToLive = 30.0
