[gd_scene load_steps=3 format=2]

[ext_resource path="res://Textures/torp_standard.png" type="Texture" id=1]
[ext_resource path="res://Scenes/UI/TorpedoOptionButton.cs" type="Script" id=2]

[node name="TorpedoOptionButton" type="Button"]
margin_right = 76.0
margin_bottom = 20.0
hint_tooltip = "Standard Torpedo"
focus_mode = 0
toggle_mode = true
enabled_focus_mode = 0
icon = ExtResource( 1 )
script = ExtResource( 2 )
__meta__ = {
"_edit_use_anchors_": false
}

[connection signal="pressed" from="." to="." method="OnPressed"]
