[gd_scene load_steps=2 format=2]

[ext_resource path="res://Scenes/UI/TurretDealerOptionButton.cs" type="Script" id=1]

[node name="TurretDealerOptionButton" type="Button"]
margin_right = 150.0
margin_bottom = 20.0
focus_mode = 0
toggle_mode = true
enabled_focus_mode = 0
keep_pressed_outside = true
text = "Single Turret"
script = ExtResource( 1 )
__meta__ = {
"_edit_use_anchors_": false
}

[connection signal="pressed" from="." to="." method="OnPressed"]
