[gd_resource type="Resource" load_steps=6 format=2]

[ext_resource path="res://Scenes/Equipment/Torpedoes/TorpedoScorn.tscn" type="PackedScene" id=1]
[ext_resource path="res://Resources/Equipment/Ammunition/TorpedoType.cs" type="Script" id=2]
[ext_resource path="res://Textures/torp_hvyrocket.png" type="Texture" id=3]
[ext_resource path="res://Scenes/Effects/eff_torplauch.tscn" type="PackedScene" id=4]
[ext_resource path="res://Resources/Simulation/Factions/Novarus/f_Novarus.tres" type="Resource" id=5]

[resource]
script = ExtResource( 2 )
TorpedoPrefab = ExtResource( 1 )
LaunchEffectPrefab = ExtResource( 4 )
Icon = ExtResource( 3 )
Name = "Scorn"
LaunchingNoise = 2000.0
Value = 0.0
SizeCategory = 0
Description = "A rocket powered supercavitating torpedo. Blisteringly fast, but very limited in flight time and agility. With its heavy warhead and short range the Scorn more closely resembles a rocket powered bomb."
Damage = 1500.0
Penetration = 10.0
Speed = 200.0
FuelTime = 8.0
IndustrialNeed = 0.0
MilitaryNeed = 0.6
Operators = [ ExtResource( 5 ) ]
ReputationRequired = 30.0
