[gd_resource type="Resource" load_steps=8 format=2]

[ext_resource path="res://Resources/Worldgen/AgentDefinitions/AgentDefinition.cs" type="Script" id=1]
[ext_resource path="res://Textures/map_icons/mapicon_sub.png" type="Texture" id=2]
[ext_resource path="res://Resources/Equipment/SubLoadouts/LoadoutMilitaryPatriot.tres" type="Resource" id=3]
[ext_resource path="res://Scenes/Worldgen/AgentIndicatorSmall.tscn" type="PackedScene" id=4]
[ext_resource path="res://Scenes/Interaction/SimulationPatrollingGoalBotController.tscn" type="PackedScene" id=5]
[ext_resource path="res://Resources/AI/SimulationAgent/PatrolAgentBehavior.tres" type="Resource" id=6]
[ext_resource path="res://Scenes/Interaction/MissionEnemyGoalBotController.tscn" type="PackedScene" id=7]

[resource]
script = ExtResource( 1 )
Name = "patrol_Patriot"
IsTrader = false
IsSecurity = true
MovementSpeed = 35.0
SupportCost = 3.0
AgentBehavior = ExtResource( 6 )
MapIcon = ExtResource( 2 )
SubLoadout = ExtResource( 3 )
IndicatorPrefab = ExtResource( 4 )
ControllerPrefab = ExtResource( 5 )
MissionEnemyControllerPrefab = ExtResource( 7 )
CanBePatrolEnemy = true
Agility = 0.58
Evasion = 0.3
FocusedDamage = 500.0
WideDamage = 375.0
Armor = 0.27
Stealth = 0.59
AgentNameRole = "Patroller"
