[gd_scene load_steps=19 format=2]

[ext_resource path="res://Scenes/Divers/RepairDiver.cs" type="Script" id=1]
[ext_resource path="res://Assets/Models/diver.obj" type="ArrayMesh" id=2]
[ext_resource path="res://Textures/bubbles.tres" type="QuadMesh" id=3]
[ext_resource path="res://addons/kenney_particle_pack/star_06.png" type="Texture" id=4]
[ext_resource path="res://Assets/OttersModels/Texture/Sprite-0001.png" type="Texture" id=5]

[sub_resource type="SphereShape" id=1]
radius = 0.8

[sub_resource type="ArrayMesh" id=19]
resource_name = "SpotLight_Cylinder012"
surfaces/0 = {
"aabb": AABB( -8.76512, -26.8018, -8.76512, 17.5302, 27.3607, 17.5302 ),
"array_data": PoolByteArray( 245, 233, 187, 178, 1, 106, 214, 193, 240, 61, 12, 193, 97, 127, 120, 66, 0, 0, 27, 33, 245, 233, 187, 178, 1, 106, 214, 193, 240, 61, 12, 193, 97, 127, 121, 60, 252, 59, 27, 33, 0, 0, 0, 0, 215, 24, 15, 63, 215, 24, 15, 191, 97, 127, 120, 66, 82, 55, 255, 59, 0, 0, 0, 0, 215, 24, 15, 63, 215, 24, 15, 191, 97, 127, 121, 60, 43, 56, 255, 59, 61, 89, 45, 64, 1, 106, 214, 193, 197, 96, 5, 193, 102, 101, 95, 63, 246, 40, 27, 33, 174, 224, 48, 62, 215, 24, 15, 63, 231, 23, 8, 191, 102, 101, 95, 63, 92, 55, 255, 59, 66, 221, 164, 64, 1, 106, 214, 193, 142, 234, 226, 192, 104, 83, 73, 63, 50, 45, 27, 33, 124, 56, 168, 62, 215, 24, 15, 63, 46, 137, 231, 190, 104, 83, 73, 63, 103, 55, 255, 59, 142, 234, 226, 64, 1, 106, 214, 193, 66, 221, 164, 192, 104, 66, 53, 63, 15, 48, 27, 33, 46, 137, 231, 62, 215, 24, 15, 63, 124, 56, 168, 190, 104, 66, 53, 63, 115, 55, 255, 59, 197, 96, 5, 65, 1, 106, 214, 193, 62, 89, 45, 192, 102, 49, 31, 63, 158, 49, 27, 33, 231, 23, 8, 63, 215, 24, 15, 63, 173, 224, 48, 190, 102, 49, 31, 63, 128, 55, 255, 59, 240, 61, 12, 65, 1, 106, 214, 193, 202, 43, 137, 49, 97, 29, 0, 63, 65, 51, 27, 33, 215, 24, 15, 63, 215, 24, 15, 63, 200, 225, 209, 50, 97, 29, 0, 63, 141, 55, 255, 59, 197, 96, 5, 65, 1, 106, 214, 193, 60, 89, 45, 64, 77, 24, 225, 63, 123, 52, 27, 33, 230, 23, 8, 63, 215, 24, 15, 63, 176, 224, 48, 62, 77, 24, 225, 63, 155, 55, 255, 59, 142, 234, 226, 64, 1, 106, 214, 193, 65, 221, 164, 64, 60, 22, 203, 63, 92, 53, 27, 33, 46, 137, 231, 62, 215, 24, 15, 63, 123, 56, 168, 62, 60, 22, 203, 63, 169, 55, 255, 59, 65, 221, 164, 64, 1, 106, 214, 193, 143, 234, 226, 64, 43, 22, 183, 63, 66, 54, 27, 33, 123, 56, 168, 62, 215, 24, 15, 63, 47, 137, 231, 62, 43, 22, 183, 63, 184, 55, 255, 59, 62, 89, 45, 64, 1, 106, 214, 193, 197, 96, 5, 65, 25, 24, 161, 63, 44, 55, 27, 33, 176, 224, 48, 62, 215, 24, 15, 63, 230, 23, 8, 63, 25, 24, 161, 63, 199, 55, 255, 59, 17, 145, 83, 181, 1, 106, 214, 193, 240, 61, 12, 65, 0, 29, 130, 63, 11, 56, 27, 33, 200, 225, 81, 179, 215, 24, 15, 63, 215, 24, 15, 63, 0, 29, 130, 63, 214, 55, 255, 59, 60, 89, 45, 192, 1, 106, 214, 193, 197, 96, 5, 65, 231, 24, 130, 79, 128, 56, 27, 33, 173, 224, 48, 190, 215, 24, 15, 63, 231, 23, 8, 63, 231, 24, 130, 79, 229, 55, 255, 59, 68, 221, 164, 192, 1, 106, 214, 193, 141, 234, 226, 64, 213, 22, 130, 36, 244, 56, 27, 33, 127, 56, 168, 190, 215, 24, 15, 63, 45, 137, 231, 62, 213, 22, 130, 36, 244, 55, 255, 59, 145, 234, 226, 192, 1, 106, 214, 193, 62, 221, 164, 64, 196, 22, 130, 100, 102, 57, 27, 33, 48, 137, 231, 190, 215, 24, 15, 63, 121, 56, 168, 62, 196, 22, 130, 100, 1, 56, 255, 59, 197, 96, 5, 193, 1, 106, 214, 193, 62, 89, 45, 64, 179, 24, 130, 15, 213, 57, 27, 33, 230, 23, 8, 191, 215, 24, 15, 63, 178, 224, 48, 62, 179, 24, 130, 15, 8, 56, 255, 59, 240, 61, 12, 193, 1, 106, 214, 193, 81, 213, 1, 181, 159, 29, 126, 127, 63, 58, 27, 33, 215, 24, 15, 191, 215, 24, 15, 63, 249, 7, 229, 177, 159, 29, 130, 1, 15, 56, 255, 59, 197, 96, 5, 193, 1, 106, 214, 193, 66, 89, 45, 192, 154, 49, 126, 111, 165, 58, 27, 33, 230, 23, 8, 191, 215, 24, 15, 63, 179, 224, 48, 190, 154, 49, 126, 111, 21, 56, 255, 59, 145, 234, 226, 192, 1, 106, 214, 193, 62, 221, 164, 192, 152, 66, 126, 26, 5, 59, 27, 33, 48, 137, 231, 190, 215, 24, 15, 63, 121, 56, 168, 190, 152, 66, 126, 26, 27, 56, 255, 59, 67, 221, 164, 192, 1, 106, 214, 193, 141, 234, 226, 192, 152, 83, 126, 90, 95, 59, 27, 33, 125, 56, 168, 190, 215, 24, 15, 63, 45, 137, 231, 190, 152, 83, 126, 90, 33, 56, 255, 59, 60, 89, 45, 192, 1, 106, 214, 193, 197, 96, 5, 193, 154, 101, 126, 47, 178, 59, 27, 33, 172, 224, 48, 190, 215, 24, 15, 63, 231, 23, 8, 191, 154, 101, 126, 47, 38, 56, 255, 59 ),
"array_index_data": PoolByteArray( 0, 0, 5, 0, 2, 0, 0, 0, 4, 0, 5, 0, 4, 0, 7, 0, 5, 0, 4, 0, 6, 0, 7, 0, 6, 0, 9, 0, 7, 0, 6, 0, 8, 0, 9, 0, 8, 0, 11, 0, 9, 0, 8, 0, 10, 0, 11, 0, 10, 0, 13, 0, 11, 0, 10, 0, 12, 0, 13, 0, 12, 0, 15, 0, 13, 0, 12, 0, 14, 0, 15, 0, 14, 0, 17, 0, 15, 0, 14, 0, 16, 0, 17, 0, 16, 0, 19, 0, 17, 0, 16, 0, 18, 0, 19, 0, 18, 0, 21, 0, 19, 0, 18, 0, 20, 0, 21, 0, 20, 0, 23, 0, 21, 0, 20, 0, 22, 0, 23, 0, 22, 0, 25, 0, 23, 0, 22, 0, 24, 0, 25, 0, 24, 0, 27, 0, 25, 0, 24, 0, 26, 0, 27, 0, 26, 0, 29, 0, 27, 0, 26, 0, 28, 0, 29, 0, 28, 0, 31, 0, 29, 0, 28, 0, 30, 0, 31, 0, 30, 0, 33, 0, 31, 0, 30, 0, 32, 0, 33, 0, 32, 0, 35, 0, 33, 0, 32, 0, 34, 0, 35, 0, 34, 0, 37, 0, 35, 0, 34, 0, 36, 0, 37, 0, 36, 0, 39, 0, 37, 0, 36, 0, 38, 0, 39, 0, 38, 0, 41, 0, 39, 0, 38, 0, 40, 0, 41, 0, 40, 0, 3, 0, 41, 0, 40, 0, 1, 0, 3, 0 ),
"blend_shape_data": [  ],
"format": 2194711,
"index_count": 120,
"primitive": 4,
"skeleton_aabb": [  ],
"vertex_count": 42
}

[sub_resource type="SpatialMaterial" id=20]
flags_transparent = true
flags_unshaded = true
params_blend_mode = 1
params_cull_mode = 2
albedo_color = Color( 1, 1, 1, 0.00784314 )
albedo_texture = ExtResource( 5 )

[sub_resource type="Curve" id=3]
_data = [ Vector2( 0, 1 ), 0.0, 0.0, 0, 0, Vector2( 0.782609, 0.80644 ), -0.669091, -0.669091, 0, 0, Vector2( 1, 0 ), -4.59465, 0.0, 0, 0 ]

[sub_resource type="CurveTexture" id=18]
curve = SubResource( 3 )

[sub_resource type="ParticlesMaterial" id=4]
lifetime_randomness = 0.5
spread = 10.0
gravity = Vector3( 0, 0, 0 )
initial_velocity = 3.0
damping = 1.0
scale = 0.5
scale_curve = SubResource( 18 )

[sub_resource type="Gradient" id=11]
offsets = PoolRealArray( 0, 0.5, 1 )
colors = PoolColorArray( 1, 1, 1, 1, 1, 1, 1, 1, 1, 1, 1, 0 )

[sub_resource type="GradientTexture" id=21]
gradient = SubResource( 11 )

[sub_resource type="Curve" id=12]
_data = [ Vector2( 0, 1 ), 0.0, 0.0, 0, 0, Vector2( 1, 0 ), -2.65075, 0.0, 0, 0 ]

[sub_resource type="CurveTexture" id=22]
curve = SubResource( 12 )

[sub_resource type="ParticlesMaterial" id=13]
lifetime_randomness = 0.5
spread = 180.0
gravity = Vector3( 0, 0, 0 )
initial_velocity = 1.0
scale = 1.5
scale_curve = SubResource( 22 )
color_ramp = SubResource( 21 )

[sub_resource type="SpatialMaterial" id=23]
flags_transparent = true
flags_unshaded = true
vertex_color_use_as_albedo = true
params_billboard_mode = 3
particles_anim_h_frames = 1
particles_anim_v_frames = 1
particles_anim_loop = false
albedo_texture = ExtResource( 4 )

[sub_resource type="QuadMesh" id=14]
material = SubResource( 23 )

[node name="RepairDiver" type="RigidBody"]
mass = 2.0
contacts_reported = 1
contact_monitor = true
linear_damp = 1.0
angular_damp = 2.0
script = ExtResource( 1 )
MaxDiveTime = 480.0

[node name="CollisionShape" type="CollisionShape" parent="."]
shape = SubResource( 1 )

[node name="MeshInstance" type="MeshInstance" parent="."]
transform = Transform( 1, 0, 0, 0, 0.707107, 0.707107, 0, -0.707107, 0.707107, 0, 0, 0 )
mesh = ExtResource( 2 )
material/0 = null

[node name="SpotLight" type="SpotLight" parent="."]
transform = Transform( 1, 0, 0, 0, -0.85233, 0.523004, 0, -0.523004, -0.85233, 0, 0.40139, 0.606031 )
light_color = Color( 1, 1, 0.376471, 1 )
light_energy = 0.5
light_indirect_energy = 0.5
spot_range = 50.0
spot_angle = 17.2

[node name="Cylinder011" type="MeshInstance" parent="SpotLight"]
transform = Transform( -0.2, 3.01992e-08, 1.32005e-15, 8.88178e-16, 7.45058e-09, 0.2, 3.01992e-08, 0.2, -7.45058e-09, 0, 0, 0 )
mesh = SubResource( 19 )
material/0 = SubResource( 20 )

[node name="EngineParticles" type="Particles" parent="."]
transform = Transform( -4.37114e-08, 0, 1, 0, 1, 0, -1, 0, -4.37114e-08, 0, 0.466493, -0.0288033 )
amount = 50
lifetime = 2.0
local_coords = false
process_material = SubResource( 4 )
draw_pass_1 = ExtResource( 3 )

[node name="WeldArc" type="Spatial" parent="."]
transform = Transform( 1, 0, 0, 0, 1, 0, 0, 0, 1, -0.251652, -0.00585233, 0.749103 )

[node name="Particles" type="Particles" parent="WeldArc"]
amount = 4
lifetime = 0.2
explosiveness = 0.4
randomness = 1.0
process_material = SubResource( 13 )
draw_pass_1 = SubResource( 14 )

[node name="OmniLight" type="OmniLight" parent="WeldArc"]
shadow_enabled = true
omni_range = 8.20595

[connection signal="body_entered" from="." to="." method="Collided"]
