[gd_resource type="Resource" load_steps=6 format=2]

[ext_resource path="res://Resources/Simulation/Factions/Novarus/f_Novarus.tres" type="Resource" id=1]
[ext_resource path="res://Resources/Simulation/Factions/f_Blackreef.tres" type="Resource" id=2]
[ext_resource path="res://Resources/BountyOffering.cs" type="Script" id=3]
[ext_resource path="res://Resources/Simulation/Factions/Novarus/f_NDF.tres" type="Resource" id=4]
[ext_resource path="res://Resources/Simulation/Factions/f_Redreef.tres" type="Resource" id=5]

[resource]
script = ExtResource( 3 )
OfferingFactions = [ ExtResource( 1 ) ]
TargetFactions = [ ExtResource( 2 ), ExtResource( 4 ), ExtResource( 5 ) ]
