[gd_resource type="Resource" load_steps=4 format=2]

[ext_resource path="res://Resources/Simulation/Factions/Hudson/a_HudsonRepublic.tres" type="Resource" id=1]
[ext_resource path="res://Resources/Simulation/Factions/Hudson/f_Liberte.tres" type="Resource" id=2]
[ext_resource path="res://Resources/StartingFactionRelation.cs" type="Script" id=3]

[resource]
script = ExtResource( 3 )
Factions = [ ExtResource( 2 ) ]
Alliances = [ ExtResource( 1 ) ]
StartingRelation = -100.0
