[gd_resource type="Resource" load_steps=3 format=2]

[ext_resource path="res://Resources/Equipment/SubHulls/SubHullType.cs" type="Script" id=1]
[ext_resource path="res://Scenes/Ships/sub_seatruck.tscn" type="PackedScene" id=2]

[resource]
script = ExtResource( 1 )
SubHullTypeId = "MinisubhullSeatruck"
Name = "\"Seatruck\" Minisub"
Description = "The Seatruck is a popular and versitile minisub, well suited for a variety of utility tasks. It can handle anything from salvage to mining, just doing put it into a fight."
SubPrefab = ExtResource( 2 )
Volume = 136.0
Health = 1167.0
Value = 0.0
Turrets = 0
TorpedoTubes = 0
MinisubHangars = 0
FrontDragFactor = 11.0
SideDragFactor = 46.0
HullSurfaceArea = 166.0
IndustrialNeed = 0.0
MilitaryNeed = 0.0
Operators = null
ReputationRequired = 0.0
