[gd_resource type="Resource" load_steps=7 format=2]

[ext_resource path="res://Resources/Equipment/SubHulls/SubHullType.cs" type="Script" id=1]
[ext_resource path="res://Scenes/Ships/sub_mule.tscn" type="PackedScene" id=2]
[ext_resource path="res://Resources/Simulation/Factions/Novarus/f_Novarus.tres" type="Resource" id=3]
[ext_resource path="res://Resources/Simulation/Factions/f_Cartel.tres" type="Resource" id=4]
[ext_resource path="res://Resources/Simulation/Factions/Novarus/f_NDF.tres" type="Resource" id=5]
[ext_resource path="res://Resources/Simulation/Factions/f_Redreef.tres" type="Resource" id=6]

[resource]
script = ExtResource( 1 )
SubHullTypeId = "SubhullMule"
Name = "\"Mule\" Light Transport"
Description = "The Mule is an ancient, but  rugged transport design. It is a specialized cargo hauler, featuring only a single torpeo tube for self defense."
SubPrefab = ExtResource( 2 )
Volume = 3732.0
Health = 6109.0
Value = 118306.0
Turrets = 0
TorpedoTubes = 1
MinisubHangars = 0
FrontDragFactor = 113.0
SideDragFactor = 396.0
HullSurfaceArea = 1470.0
IndustrialNeed = 0.0
MilitaryNeed = 0.0
Operators = [ ExtResource( 3 ), ExtResource( 4 ), ExtResource( 6 ), ExtResource( 5 ) ]
ReputationRequired = 0.0
