[gd_scene load_steps=3 format=2]

[ext_resource path="res://Assets/Models/kelp.obj" type="ArrayMesh" id=1]

[sub_resource type="SpatialMaterial" id=1]
albedo_color = Color( 0, 1, 0, 1 )

[node name="kelp" type="Spatial"]
transform = Transform( 1, 0, 0, 0, -1, 8.74228e-08, 0, -8.74228e-08, -1, 0, 0, 0 )

[node name="MeshInstance" type="MeshInstance" parent="."]
transform = Transform( -0.953391, 0.301738, 0, -0.301738, -0.953391, 0, 0, 0, 1.5, 0, 0, 0 )
mesh = ExtResource( 1 )
material/0 = SubResource( 1 )
