[gd_resource type="Resource" load_steps=2 format=2]

[ext_resource path="res://Resources/Worldgen/FixedPointOfInterest.cs" type="Script" id=1]

[resource]
script = ExtResource( 1 )
Latitude = 5.73
Longitude = 116.607
Name = "Bastion"
ContactType = 2
