[gd_resource type="Resource" load_steps=5 format=2]

[ext_resource path="res://Resources/Equipment/Ammunition/AmmunitionType.cs" type="Script" id=1]
[ext_resource path="res://Scenes/Equipment/Ammunition/AmmoHelldart.tscn" type="PackedScene" id=2]
[ext_resource path="res://Textures/ammo_helldart.png" type="Texture" id=3]
[ext_resource path="res://Textures/ui_icons/ammo_helldart.png" type="Texture" id=4]

[resource]
script = ExtResource( 1 )
BulletPrefab = ExtResource( 2 )
Icon = ExtResource( 3 )
SmallIcon = ExtResource( 4 )
Name = "Helldart"
FiringNoise = 500.0
MaximumRange = 1000.0
Damage = 400.0
ArmorPenetration = 5.0
MuzzleVelocity = 5.0
LeadVelocity = 200.0
