[gd_resource type="Resource" load_steps=5 format=2]

[ext_resource path="res://Resources/Equipment/Ammunition/AmmunitionType.cs" type="Script" id=1]
[ext_resource path="res://Scenes/Equipment/Ammunition/AmmoRocketdart.tscn" type="PackedScene" id=2]
[ext_resource path="res://Textures/ammo_helldart.png" type="Texture" id=3]
[ext_resource path="res://Textures/ui_icons/ammo_helldart.png" type="Texture" id=4]

[resource]
script = ExtResource( 1 )
BulletPrefab = ExtResource( 2 )
Icon = ExtResource( 3 )
SmallIcon = ExtResource( 4 )
Name = "Rocketdart"
FiringNoise = 200.0
MaximumRange = 400.0
Damage = 100.0
ArmorPenetration = 0.0
MuzzleVelocity = 20.0
LeadVelocity = 300.0
