[gd_resource type="Resource" load_steps=8 format=2]

[ext_resource path="res://Resources/Equipment/Modules/Engines/EngineModuleType.cs" type="Script" id=1]
[ext_resource path="res://Resources/Simulation/Factions/Hudson/f_Hudson.tres" type="Resource" id=2]
[ext_resource path="res://Resources/Simulation/Factions/Hudson/f_Bastion.tres" type="Resource" id=3]
[ext_resource path="res://Resources/Simulation/Factions/Hudson/f_Delve.tres" type="Resource" id=4]
[ext_resource path="res://Resources/Simulation/Factions/Hudson/f_Nerva.tres" type="Resource" id=5]
[ext_resource path="res://Resources/Simulation/Factions/Hudson/f_Northburg.tres" type="Resource" id=6]
[ext_resource path="res://Resources/Simulation/Factions/Hudson/f_Newhome.tres" type="Resource" id=7]

[resource]
script = ExtResource( 1 )
ModuleTypeId = "EngMilAgile_6k"
Category = 2
Name = "\"Agile\" 6k Military Engine"
Description = "A 6,000 kN version of the \"Agile\" Hudson military engine design. It's more compact than a typical civilian engine, with additional thrust vectoring to improve turn rates."
Volume = 2727.0
Value = 0.0
IndustrialNeed = 0.0
MilitaryNeed = 1.0
Operators = [ ExtResource( 2 ), ExtResource( 3 ), ExtResource( 4 ), ExtResource( 5 ), ExtResource( 7 ), ExtResource( 6 ) ]
CombatThreat = 0.0
ReputationRequired = 20.0
MaximumThrust = 6000.0
TurningFactor = 1.3
MaximumNoise = 6000.0
