[gd_resource type="Resource" load_steps=7 format=2]

[ext_resource path="res://Resources/Equipment/Modules/Engines/EngineModuleType.cs" type="Script" id=1]
[ext_resource path="res://Resources/Simulation/Factions/f_Cartel.tres" type="Resource" id=2]
[ext_resource path="res://Resources/Simulation/Factions/f_Blackreef.tres" type="Resource" id=3]
[ext_resource path="res://Resources/Simulation/Factions/Hudson/f_Liberte.tres" type="Resource" id=4]
[ext_resource path="res://Resources/Simulation/Factions/Novarus/f_NDF.tres" type="Resource" id=5]
[ext_resource path="res://Resources/Simulation/Factions/f_Redreef.tres" type="Resource" id=6]

[resource]
script = ExtResource( 1 )
ModuleTypeId = "EngPi_1000"
Category = 2
Name = "\"Buccaneer\" 1k Pirate Engine"
Description = "A 1,000 kN version of the \"Buccaneer\" black market engine design. It's more compact but significantly louder than a typical engine design."
Volume = 333.0
Value = 0.0
IndustrialNeed = 0.0
MilitaryNeed = 0.0
Operators = [ ExtResource( 3 ), ExtResource( 2 ), ExtResource( 4 ), ExtResource( 6 ), ExtResource( 5 ) ]
CombatThreat = 0.0
ReputationRequired = 0.0
MaximumThrust = 1000.0
TurningFactor = 1.0
MaximumNoise = 1500.0
