[gd_scene load_steps=5 format=2]

[ext_resource path="res://Resources/Equipment/DiveTeams/SalvageDiveTeamType.tres" type="Resource" id=1]
[ext_resource path="res://Scenes/Bases/BarStationRoom.cs" type="Script" id=2]
[ext_resource path="res://Resources/Equipment/DiveTeams/RepairDiveTeamType.tres" type="Resource" id=5]
[ext_resource path="res://Scenes/UI/Bar.tscn" type="PackedScene" id=6]

[node name="RoomBar" type="Spatial"]
transform = Transform( 1, 0, 0, 0, 1, 0, 0, 0, 1, -49.4307, -329.538, 173.458 )
script = ExtResource( 2 )
FriendlyName = "The Drunken Sailor"
Description = "Drinks, rumors, and jobs."
StationRoomWidgetPrefab = ExtResource( 6 )
DiveTeamOptions = [ ExtResource( 5 ), ExtResource( 1 ) ]
