[gd_resource type="Resource" load_steps=22 format=2]

[ext_resource path="res://Resources/Worldgen/StationModuleSets/ImperialCityStationModuleSet.tres" type="Resource" id=1]
[ext_resource path="res://Resources/Simulation/Economy/EconomicProcess/eproc_agent_upkeep.tres" type="Resource" id=2]
[ext_resource path="res://Resources/Simulation/Economy/EconomicProcess/eproc_consumer_goods_factory.tres" type="Resource" id=3]
[ext_resource path="res://Resources/Simulation/Economy/EconomicProcess/eproc_reactor.tres" type="Resource" id=4]
[ext_resource path="res://Resources/Simulation/Economy/EconomicProcess/eproc_pop_upkeep.tres" type="Resource" id=5]
[ext_resource path="res://Resources/Simulation/Factions/f_Cartel.tres" type="Resource" id=6]
[ext_resource path="res://Resources/Worldgen/StationDefinitions/StationDefinition.cs" type="Script" id=7]
[ext_resource path="res://Resources/Simulation/Economy/EconomicProcess/eproc_fuel_rod_factory.tres" type="Resource" id=8]
[ext_resource path="res://Resources/Simulation/Economy/EconomicProcess/eproc_food_factory.tres" type="Resource" id=9]
[ext_resource path="res://Resources/Simulation/Economy/EconomicProcess/eproc_weapons_factory.tres" type="Resource" id=10]
[ext_resource path="res://Resources/Simulation/Economy/EconomicProcess/eproc_steel_foundry.tres" type="Resource" id=11]
[ext_resource path="res://Resources/Simulation/Factions/Novarus/f_Novarus.tres" type="Resource" id=12]
[ext_resource path="res://Resources/Simulation/Economy/EconomicProcess/eproc_bewery.tres" type="Resource" id=13]
[ext_resource path="res://Resources/Simulation/Economy/EconomicProcess/eproc_resin_factory.tres" type="Resource" id=14]
[ext_resource path="res://Resources/Simulation/Economy/Farming/eproc_kelp_farm.tres" type="Resource" id=15]
[ext_resource path="res://Resources/Simulation/Economy/Mining/eproc_mine.tres" type="Resource" id=16]
[ext_resource path="res://Resources/Worldgen/AgentDefinitions/trade_Mule.tres" type="Resource" id=17]
[ext_resource path="res://Resources/Worldgen/AgentDefinitions/patrol_Czar.tres" type="Resource" id=18]
[ext_resource path="res://Resources/Worldgen/AgentDefinitions/patrol_Frigate.tres" type="Resource" id=19]
[ext_resource path="res://Resources/Worldgen/AgentDefinitions/patrol_Hammerhead.tres" type="Resource" id=20]
[ext_resource path="res://Resources/Worldgen/AgentDefinitions/trade_Ox.tres" type="Resource" id=21]

[resource]
script = ExtResource( 7 )
Name = "Imperial City"
Faction = ExtResource( 12 )
Latitude = 15.756
Longitude = 78.881
CommodityCapacity = 50000
FactionsPresent = [ ExtResource( 12 ), ExtResource( 6 ) ]
TradeDistance = 375000.0
EconomicProcesses = [ ExtResource( 5 ), ExtResource( 5 ), ExtResource( 5 ), ExtResource( 5 ), ExtResource( 5 ), ExtResource( 5 ), ExtResource( 5 ), ExtResource( 5 ), ExtResource( 5 ), ExtResource( 5 ), ExtResource( 5 ), ExtResource( 5 ), ExtResource( 5 ), ExtResource( 5 ), ExtResource( 5 ), ExtResource( 5 ), ExtResource( 5 ), ExtResource( 5 ), ExtResource( 5 ), ExtResource( 5 ), ExtResource( 5 ), ExtResource( 5 ), ExtResource( 5 ), ExtResource( 5 ), ExtResource( 5 ), ExtResource( 5 ), ExtResource( 4 ), ExtResource( 4 ), ExtResource( 4 ), ExtResource( 4 ), ExtResource( 4 ), ExtResource( 4 ), ExtResource( 4 ), ExtResource( 4 ), ExtResource( 4 ), ExtResource( 2 ), ExtResource( 2 ), ExtResource( 2 ), ExtResource( 2 ), ExtResource( 2 ), ExtResource( 2 ), ExtResource( 8 ), ExtResource( 8 ), ExtResource( 3 ), ExtResource( 3 ), ExtResource( 3 ), ExtResource( 3 ), ExtResource( 3 ), ExtResource( 9 ), ExtResource( 9 ), ExtResource( 9 ), ExtResource( 9 ), ExtResource( 9 ), ExtResource( 9 ), ExtResource( 9 ), ExtResource( 9 ), ExtResource( 9 ), ExtResource( 9 ), ExtResource( 10 ), ExtResource( 10 ), ExtResource( 10 ), ExtResource( 10 ), ExtResource( 10 ), ExtResource( 10 ), ExtResource( 13 ), ExtResource( 13 ), ExtResource( 13 ), ExtResource( 11 ), ExtResource( 11 ), ExtResource( 11 ), ExtResource( 11 ), ExtResource( 11 ), ExtResource( 11 ), ExtResource( 11 ), ExtResource( 11 ), ExtResource( 14 ), ExtResource( 14 ), ExtResource( 14 ), ExtResource( 14 ), ExtResource( 15 ), ExtResource( 15 ), ExtResource( 15 ), ExtResource( 15 ), ExtResource( 15 ), ExtResource( 15 ), ExtResource( 15 ), ExtResource( 16 ), ExtResource( 16 ), ExtResource( 16 ), ExtResource( 16 ), ExtResource( 16 ), ExtResource( 16 ), ExtResource( 16 ), ExtResource( 16 ), ExtResource( 16 ), ExtResource( 16 ), ExtResource( 16 ), ExtResource( 16 ), ExtResource( 8 ) ]
SupportedAgents = [ ExtResource( 18 ), ExtResource( 18 ), ExtResource( 20 ), ExtResource( 19 ), ExtResource( 19 ), ExtResource( 19 ), ExtResource( 19 ), ExtResource( 19 ), ExtResource( 17 ), ExtResource( 17 ), ExtResource( 17 ), ExtResource( 21 ), ExtResource( 21 ) ]
ModuleSet = ExtResource( 1 )
StationShape = 1
TradeSourceLatitude = 17.189
TradeSourceLongitude = 95.959
AttackSourceLatitude = 0.0
AttackSourceLongitude = 0.0
DefenseTowerCount = 8
BarName = "The Crown"
EquipmentShopName = "Royal Armaments"
WarehouseName = "Fatherland Logistics"
SecurityOfficeName = "Security Office"
BountyOfficeName = "Sherrif's Office"
