[gd_resource type="Resource" load_steps=2 format=2]

[ext_resource path="res://Resources/Faction.cs" type="Script" id=1]

[resource]
script = ExtResource( 1 )
Name = "Debris"
Description = null
Color = Color( 0, 0, 0, 0 )
TracksCrimes = false
Contraband = [  ]
SmugglingMissionCommodities = [  ]
MinimumFactionStandingForTrade = 0.0
